<?xml version="1.0" encoding="UTF-8" standalone="no"?>
<!-- Created with Inkscape (http://www.inkscape.org/) -->

<svg
   xmlns:dc="http://purl.org/dc/elements/1.1/"
   xmlns:cc="http://creativecommons.org/ns#"
   xmlns:rdf="http://www.w3.org/1999/02/22-rdf-syntax-ns#"
   xmlns:svg="http://www.w3.org/2000/svg"
   xmlns="http://www.w3.org/2000/svg"
   xmlns:sodipodi="http://sodipodi.sourceforge.net/DTD/sodipodi-0.dtd"
   xmlns:inkscape="http://www.inkscape.org/namespaces/inkscape"
   width="306.95505mm"
   height="176.17311mm"
   viewBox="0 0 306.95505 176.17312"
   version="1.1"
   id="svg1965"
   inkscape:version="0.92.4 5da689c313, 2019-01-14"
   sodipodi:docname="soc_neopi.svg"
   inkscape:export-filename="/home/hugo/Documents/mestr-python/docs/imgs/block_neopi.svg.png"
   inkscape:export-xdpi="105"
   inkscape:export-ydpi="105">
  <defs
     id="defs1959">
    <marker
       inkscape:stockid="Arrow1Lend"
       orient="auto"
       refY="0"
       refX="0"
       id="marker1419"
       style="overflow:visible"
       inkscape:isstock="true">
      <path
         id="path1145"
         d="M 0,0 5,-5 -12.5,0 5,5 Z"
         style="fill:#000000;fill-opacity:1;fill-rule:evenodd;stroke:#000000;stroke-width:1.00000003pt;stroke-opacity:1"
         transform="matrix(-0.8,0,0,-0.8,-10,0)"
         inkscape:connector-curvature="0" />
    </marker>
    <marker
       inkscape:stockid="Arrow1Lstart"
       orient="auto"
       refY="0"
       refX="0"
       id="Arrow1Lstart"
       style="overflow:visible"
       inkscape:isstock="true">
      <path
         id="path1142"
         d="M 0,0 5,-5 -12.5,0 5,5 Z"
         style="fill:#000000;fill-opacity:1;fill-rule:evenodd;stroke:#000000;stroke-width:1.00000003pt;stroke-opacity:1"
         transform="matrix(0.8,0,0,0.8,10,0)"
         inkscape:connector-curvature="0" />
    </marker>
    <marker
       inkscape:stockid="Arrow1Lstart"
       orient="auto"
       refY="0"
       refX="0"
       id="marker1136"
       style="overflow:visible"
       inkscape:isstock="true">
      <path
         inkscape:connector-curvature="0"
         id="path1134"
         d="M 0,0 5,-5 -12.5,0 5,5 Z"
         style="fill:#000000;fill-opacity:1;fill-rule:evenodd;stroke:#000000;stroke-width:1.00000003pt;stroke-opacity:1"
         transform="matrix(0.8,0,0,0.8,10,0)" />
    </marker>
    <marker
       inkscape:stockid="Arrow1Lend"
       orient="auto"
       refY="0"
       refX="0"
       id="marker14092"
       style="overflow:visible"
       inkscape:isstock="true">
      <path
         id="path14090"
         d="M 0,0 5,-5 -12.5,0 5,5 Z"
         style="fill:#000000;fill-opacity:1;fill-rule:evenodd;stroke:#000000;stroke-width:1.00000003pt;stroke-opacity:1"
         transform="matrix(-0.8,0,0,-0.8,-10,0)"
         inkscape:connector-curvature="0" />
    </marker>
    <marker
       inkscape:isstock="true"
       style="overflow:visible"
       id="marker13758"
       refX="0"
       refY="0"
       orient="auto"
       inkscape:stockid="Arrow1Lstart">
      <path
         transform="matrix(0.8,0,0,0.8,10,0)"
         style="fill:#000000;fill-opacity:1;fill-rule:evenodd;stroke:#000000;stroke-width:1.00000003pt;stroke-opacity:1"
         d="M 0,0 5,-5 -12.5,0 5,5 Z"
         id="path13756"
         inkscape:connector-curvature="0" />
    </marker>
    <marker
       inkscape:isstock="true"
       style="overflow:visible"
       id="marker13378"
       refX="0"
       refY="0"
       orient="auto"
       inkscape:stockid="Arrow1Lstart">
      <path
         transform="matrix(0.8,0,0,0.8,10,0)"
         style="fill:#000000;fill-opacity:1;fill-rule:evenodd;stroke:#000000;stroke-width:1.00000003pt;stroke-opacity:1"
         d="M 0,0 5,-5 -12.5,0 5,5 Z"
         id="path13376"
         inkscape:connector-curvature="0" />
    </marker>
    <marker
       inkscape:isstock="true"
       style="overflow:visible"
       id="marker13056"
       refX="0"
       refY="0"
       orient="auto"
       inkscape:stockid="Arrow1Lstart">
      <path
         transform="matrix(0.8,0,0,0.8,10,0)"
         style="fill:#000000;fill-opacity:1;fill-rule:evenodd;stroke:#000000;stroke-width:1.00000003pt;stroke-opacity:1"
         d="M 0,0 5,-5 -12.5,0 5,5 Z"
         id="path13054"
         inkscape:connector-curvature="0" />
    </marker>
    <marker
       inkscape:stockid="Arrow1Lstart"
       orient="auto"
       refY="0"
       refX="0"
       id="marker12704"
       style="overflow:visible"
       inkscape:isstock="true"
       inkscape:collect="always">
      <path
         id="path12702"
         d="M 0,0 5,-5 -12.5,0 5,5 Z"
         style="fill:#000000;fill-opacity:1;fill-rule:evenodd;stroke:#000000;stroke-width:1.00000003pt;stroke-opacity:1"
         transform="matrix(0.8,0,0,0.8,10,0)"
         inkscape:connector-curvature="0" />
    </marker>
    <marker
       inkscape:isstock="true"
       style="overflow:visible"
       id="marker12368"
       refX="0"
       refY="0"
       orient="auto"
       inkscape:stockid="Arrow1Lend">
      <path
         transform="matrix(-0.8,0,0,-0.8,-10,0)"
         style="fill:#000000;fill-opacity:1;fill-rule:evenodd;stroke:#000000;stroke-width:1.00000003pt;stroke-opacity:1"
         d="M 0,0 5,-5 -12.5,0 5,5 Z"
         id="path12366"
         inkscape:connector-curvature="0" />
    </marker>
    <marker
       inkscape:isstock="true"
       style="overflow:visible"
       id="marker12058"
       refX="0"
       refY="0"
       orient="auto"
       inkscape:stockid="Arrow1Lend">
      <path
         transform="matrix(-0.8,0,0,-0.8,-10,0)"
         style="fill:#000000;fill-opacity:1;fill-rule:evenodd;stroke:#000000;stroke-width:1.00000003pt;stroke-opacity:1"
         d="M 0,0 5,-5 -12.5,0 5,5 Z"
         id="path12056"
         inkscape:connector-curvature="0" />
    </marker>
    <marker
       inkscape:isstock="true"
       style="overflow:visible"
       id="marker12048"
       refX="0"
       refY="0"
       orient="auto"
       inkscape:stockid="Arrow1Lend">
      <path
         transform="matrix(-0.8,0,0,-0.8,-10,0)"
         style="fill:#000000;fill-opacity:1;fill-rule:evenodd;stroke:#000000;stroke-width:1.00000003pt;stroke-opacity:1"
         d="M 0,0 5,-5 -12.5,0 5,5 Z"
         id="path12046"
         inkscape:connector-curvature="0" />
    </marker>
    <marker
       inkscape:isstock="true"
       style="overflow:visible"
       id="marker11404"
       refX="0"
       refY="0"
       orient="auto"
       inkscape:stockid="Arrow1Lstart">
      <path
         transform="matrix(0.8,0,0,0.8,10,0)"
         style="fill:#000000;fill-opacity:1;fill-rule:evenodd;stroke:#000000;stroke-width:1.00000003pt;stroke-opacity:1"
         d="M 0,0 5,-5 -12.5,0 5,5 Z"
         id="path11402"
         inkscape:connector-curvature="0" />
    </marker>
    <marker
       inkscape:stockid="Arrow1Lstart"
       orient="auto"
       refY="0"
       refX="0"
       id="marker11266"
       style="overflow:visible"
       inkscape:isstock="true"
       inkscape:collect="always">
      <path
         id="path11264"
         d="M 0,0 5,-5 -12.5,0 5,5 Z"
         style="fill:#000000;fill-opacity:1;fill-rule:evenodd;stroke:#000000;stroke-width:1.00000003pt;stroke-opacity:1"
         transform="matrix(0.8,0,0,0.8,10,0)"
         inkscape:connector-curvature="0" />
    </marker>
    <marker
       inkscape:stockid="Arrow1Lstart"
       orient="auto"
       refY="0"
       refX="0"
       id="marker10980"
       style="overflow:visible"
       inkscape:isstock="true">
      <path
         id="path10978"
         d="M 0,0 5,-5 -12.5,0 5,5 Z"
         style="fill:#000000;fill-opacity:1;fill-rule:evenodd;stroke:#000000;stroke-width:1.00000003pt;stroke-opacity:1"
         transform="matrix(0.8,0,0,0.8,10,0)"
         inkscape:connector-curvature="0" />
    </marker>
    <marker
       inkscape:stockid="Arrow1Lend"
       orient="auto"
       refY="0"
       refX="0"
       id="marker10676"
       style="overflow:visible"
       inkscape:isstock="true"
       inkscape:collect="always">
      <path
         id="path10674"
         d="M 0,0 5,-5 -12.5,0 5,5 Z"
         style="fill:#000000;fill-opacity:1;fill-rule:evenodd;stroke:#000000;stroke-width:1.00000003pt;stroke-opacity:1"
         transform="matrix(-0.8,0,0,-0.8,-10,0)"
         inkscape:connector-curvature="0" />
    </marker>
    <marker
       inkscape:isstock="true"
       style="overflow:visible"
       id="marker10360"
       refX="0"
       refY="0"
       orient="auto"
       inkscape:stockid="Arrow1Lstart"
       inkscape:collect="always">
      <path
         transform="matrix(0.8,0,0,0.8,10,0)"
         style="fill:#000000;fill-opacity:1;fill-rule:evenodd;stroke:#000000;stroke-width:1.00000003pt;stroke-opacity:1"
         d="M 0,0 5,-5 -12.5,0 5,5 Z"
         id="path10358"
         inkscape:connector-curvature="0" />
    </marker>
    <marker
       inkscape:stockid="Arrow1Lstart"
       orient="auto"
       refY="0"
       refX="0"
       id="marker9740"
       style="overflow:visible"
       inkscape:isstock="true"
       inkscape:collect="always">
      <path
         id="path9738"
         d="M 0,0 5,-5 -12.5,0 5,5 Z"
         style="fill:#000000;fill-opacity:1;fill-rule:evenodd;stroke:#000000;stroke-width:1.00000003pt;stroke-opacity:1"
         transform="matrix(0.8,0,0,0.8,10,0)"
         inkscape:connector-curvature="0" />
    </marker>
    <marker
       inkscape:isstock="true"
       style="overflow:visible"
       id="marker9448"
       refX="0"
       refY="0"
       orient="auto"
       inkscape:stockid="Arrow1Lstart"
       inkscape:collect="always">
      <path
         transform="matrix(0.8,0,0,0.8,10,0)"
         style="fill:#000000;fill-opacity:1;fill-rule:evenodd;stroke:#000000;stroke-width:1.00000003pt;stroke-opacity:1"
         d="M 0,0 5,-5 -12.5,0 5,5 Z"
         id="path9446"
         inkscape:connector-curvature="0" />
    </marker>
    <marker
       inkscape:isstock="true"
       style="overflow:visible"
       id="marker9198"
       refX="0"
       refY="0"
       orient="auto"
       inkscape:stockid="Arrow1Lstart">
      <path
         transform="matrix(0.8,0,0,0.8,10,0)"
         style="fill:#000000;fill-opacity:1;fill-rule:evenodd;stroke:#000000;stroke-width:1.00000003pt;stroke-opacity:1"
         d="M 0,0 5,-5 -12.5,0 5,5 Z"
         id="path9196"
         inkscape:connector-curvature="0" />
    </marker>
    <marker
       inkscape:stockid="Arrow1Lstart"
       orient="auto"
       refY="0"
       refX="0"
       id="marker8918"
       style="overflow:visible"
       inkscape:isstock="true"
       inkscape:collect="always">
      <path
         id="path8916"
         d="M 0,0 5,-5 -12.5,0 5,5 Z"
         style="fill:#000000;fill-opacity:1;fill-rule:evenodd;stroke:#000000;stroke-width:1.00000003pt;stroke-opacity:1"
         transform="matrix(0.8,0,0,0.8,10,0)"
         inkscape:connector-curvature="0" />
    </marker>
    <marker
       inkscape:stockid="Arrow1Lend"
       orient="auto"
       refY="0"
       refX="0"
       id="marker8802"
       style="overflow:visible"
       inkscape:isstock="true"
       inkscape:collect="always">
      <path
         id="path8800"
         d="M 0,0 5,-5 -12.5,0 5,5 Z"
         style="fill:#000000;fill-opacity:1;fill-rule:evenodd;stroke:#000000;stroke-width:1.00000003pt;stroke-opacity:1"
         transform="matrix(-0.8,0,0,-0.8,-10,0)"
         inkscape:connector-curvature="0" />
    </marker>
    <marker
       inkscape:stockid="Arrow1Lend"
       orient="auto"
       refY="0"
       refX="0"
       id="marker8302"
       style="overflow:visible"
       inkscape:isstock="true">
      <path
         id="path8300"
         d="M 0,0 5,-5 -12.5,0 5,5 Z"
         style="fill:#000000;fill-opacity:1;fill-rule:evenodd;stroke:#000000;stroke-width:1.00000003pt;stroke-opacity:1"
         transform="matrix(-0.8,0,0,-0.8,-10,0)"
         inkscape:connector-curvature="0" />
    </marker>
    <marker
       inkscape:isstock="true"
       style="overflow:visible"
       id="marker7974"
       refX="0"
       refY="0"
       orient="auto"
       inkscape:stockid="Arrow1Lend"
       inkscape:collect="always">
      <path
         transform="matrix(-0.8,0,0,-0.8,-10,0)"
         style="fill:#000000;fill-opacity:1;fill-rule:evenodd;stroke:#000000;stroke-width:1.00000003pt;stroke-opacity:1"
         d="M 0,0 5,-5 -12.5,0 5,5 Z"
         id="path7972"
         inkscape:connector-curvature="0" />
    </marker>
    <marker
       inkscape:stockid="Arrow1Lend"
       orient="auto"
       refY="0"
       refX="0"
       id="marker7740"
       style="overflow:visible"
       inkscape:isstock="true"
       inkscape:collect="always">
      <path
         id="path7738"
         d="M 0,0 5,-5 -12.5,0 5,5 Z"
         style="fill:#000000;fill-opacity:1;fill-rule:evenodd;stroke:#000000;stroke-width:1.00000003pt;stroke-opacity:1"
         transform="matrix(-0.8,0,0,-0.8,-10,0)"
         inkscape:connector-curvature="0" />
    </marker>
    <marker
       inkscape:isstock="true"
       style="overflow:visible"
       id="marker7414"
       refX="0"
       refY="0"
       orient="auto"
       inkscape:stockid="Arrow1Lend"
       inkscape:collect="always">
      <path
         transform="matrix(-0.8,0,0,-0.8,-10,0)"
         style="fill:#000000;fill-opacity:1;fill-rule:evenodd;stroke:#000000;stroke-width:1.00000003pt;stroke-opacity:1"
         d="M 0,0 5,-5 -12.5,0 5,5 Z"
         id="path7412"
         inkscape:connector-curvature="0" />
    </marker>
    <marker
       inkscape:isstock="true"
       style="overflow:visible"
       id="marker6262"
       refX="0"
       refY="0"
       orient="auto"
       inkscape:stockid="Arrow1Lstart">
      <path
         transform="matrix(0.8,0,0,0.8,10,0)"
         style="fill:#000000;fill-opacity:1;fill-rule:evenodd;stroke:#000000;stroke-width:1.00000003pt;stroke-opacity:1"
         d="M 0,0 5,-5 -12.5,0 5,5 Z"
         id="path6260"
         inkscape:connector-curvature="0" />
    </marker>
    <marker
       inkscape:stockid="Arrow1Lend"
       orient="auto"
       refY="0"
       refX="0"
       id="marker6024"
       style="overflow:visible"
       inkscape:isstock="true"
       inkscape:collect="always">
      <path
         id="path6022"
         d="M 0,0 5,-5 -12.5,0 5,5 Z"
         style="fill:#000000;fill-opacity:1;fill-rule:evenodd;stroke:#000000;stroke-width:1.00000003pt;stroke-opacity:1"
         transform="matrix(-0.8,0,0,-0.8,-10,0)"
         inkscape:connector-curvature="0" />
    </marker>
    <marker
       inkscape:isstock="true"
       style="overflow:visible"
       id="marker1507"
       refX="0"
       refY="0"
       orient="auto"
       inkscape:stockid="Arrow1Lend"
       inkscape:collect="always">
      <path
         transform="matrix(-0.8,0,0,-0.8,-10,0)"
         style="fill:#000000;fill-opacity:1;fill-rule:evenodd;stroke:#000000;stroke-width:1.00000003pt;stroke-opacity:1"
         d="M 0,0 5,-5 -12.5,0 5,5 Z"
         id="path1505"
         inkscape:connector-curvature="0" />
    </marker>
    <marker
       inkscape:isstock="true"
       style="overflow:visible"
       id="marker1337"
       refX="0"
       refY="0"
       orient="auto"
       inkscape:stockid="Arrow1Lend">
      <path
         transform="matrix(-0.8,0,0,-0.8,-10,0)"
         style="fill:#000000;fill-opacity:1;fill-rule:evenodd;stroke:#000000;stroke-width:1.00000003pt;stroke-opacity:1"
         d="M 0,0 5,-5 -12.5,0 5,5 Z"
         id="path1335"
         inkscape:connector-curvature="0" />
    </marker>
    <marker
       inkscape:isstock="true"
       style="overflow:visible"
       id="marker1333"
       refX="0"
       refY="0"
       orient="auto"
       inkscape:stockid="Arrow1Lend">
      <path
         transform="matrix(-0.8,0,0,-0.8,-10,0)"
         style="fill:#000000;fill-opacity:1;fill-rule:evenodd;stroke:#000000;stroke-width:1.00000003pt;stroke-opacity:1"
         d="M 0,0 5,-5 -12.5,0 5,5 Z"
         id="path1331"
         inkscape:connector-curvature="0" />
    </marker>
    <marker
       inkscape:isstock="true"
       style="overflow:visible"
       id="marker1329"
       refX="0"
       refY="0"
       orient="auto"
       inkscape:stockid="Arrow1Lend">
      <path
         transform="matrix(-0.8,0,0,-0.8,-10,0)"
         style="fill:#000000;fill-opacity:1;fill-rule:evenodd;stroke:#000000;stroke-width:1.00000003pt;stroke-opacity:1"
         d="M 0,0 5,-5 -12.5,0 5,5 Z"
         id="path1327"
         inkscape:connector-curvature="0" />
    </marker>
    <marker
       inkscape:stockid="Arrow1Lend"
       orient="auto"
       refY="0"
       refX="0"
       id="marker10515"
       style="overflow:visible"
       inkscape:isstock="true">
      <path
         id="path10513"
         d="M 0,0 5,-5 -12.5,0 5,5 Z"
         style="fill:#000000;fill-opacity:1;fill-rule:evenodd;stroke:#000000;stroke-width:1.00000003pt;stroke-opacity:1"
         transform="matrix(-0.8,0,0,-0.8,-10,0)"
         inkscape:connector-curvature="0" />
    </marker>
    <marker
       inkscape:stockid="Arrow1Lend"
       orient="auto"
       refY="0"
       refX="0"
       id="marker10355"
       style="overflow:visible"
       inkscape:isstock="true">
      <path
         id="path10353"
         d="M 0,0 5,-5 -12.5,0 5,5 Z"
         style="fill:#000000;fill-opacity:1;fill-rule:evenodd;stroke:#000000;stroke-width:1.00000003pt;stroke-opacity:1"
         transform="matrix(-0.8,0,0,-0.8,-10,0)"
         inkscape:connector-curvature="0" />
    </marker>
    <marker
       inkscape:stockid="Arrow1Lend"
       orient="auto"
       refY="0"
       refX="0"
       id="marker10201"
       style="overflow:visible"
       inkscape:isstock="true">
      <path
         id="path10199"
         d="M 0,0 5,-5 -12.5,0 5,5 Z"
         style="fill:#000000;fill-opacity:1;fill-rule:evenodd;stroke:#000000;stroke-width:1.00000003pt;stroke-opacity:1"
         transform="matrix(-0.8,0,0,-0.8,-10,0)"
         inkscape:connector-curvature="0" />
    </marker>
    <marker
       inkscape:stockid="Arrow1Lend"
       orient="auto"
       refY="0"
       refX="0"
       id="marker10053"
       style="overflow:visible"
       inkscape:isstock="true">
      <path
         id="path10051"
         d="M 0,0 5,-5 -12.5,0 5,5 Z"
         style="fill:#000000;fill-opacity:1;fill-rule:evenodd;stroke:#000000;stroke-width:1.00000003pt;stroke-opacity:1"
         transform="matrix(-0.8,0,0,-0.8,-10,0)"
         inkscape:connector-curvature="0" />
    </marker>
    <marker
       inkscape:stockid="Arrow1Lstart"
       orient="auto"
       refY="0"
       refX="0"
       id="marker5674"
       style="overflow:visible"
       inkscape:isstock="true"
       inkscape:collect="always">
      <path
         id="path5672"
         d="M 0,0 5,-5 -12.5,0 5,5 Z"
         style="fill:#000000;fill-opacity:1;fill-rule:evenodd;stroke:#000000;stroke-width:1.00000003pt;stroke-opacity:1"
         transform="matrix(0.8,0,0,0.8,10,0)"
         inkscape:connector-curvature="0" />
    </marker>
    <marker
       inkscape:stockid="Arrow1Lend"
       orient="auto"
       refY="0"
       refX="0"
       id="marker5002"
       style="overflow:visible"
       inkscape:isstock="true"
       inkscape:collect="always">
      <path
         id="path5000"
         d="M 0,0 5,-5 -12.5,0 5,5 Z"
         style="fill:#000000;fill-opacity:1;fill-rule:evenodd;stroke:#000000;stroke-width:1.00000003pt;stroke-opacity:1"
         transform="matrix(-0.8,0,0,-0.8,-10,0)"
         inkscape:connector-curvature="0" />
    </marker>
    <marker
       inkscape:stockid="Arrow1Lend"
       orient="auto"
       refY="0"
       refX="0"
       id="marker4872"
       style="overflow:visible"
       inkscape:isstock="true">
      <path
         id="path4870"
         d="M 0,0 5,-5 -12.5,0 5,5 Z"
         style="fill:#000000;fill-opacity:1;fill-rule:evenodd;stroke:#000000;stroke-width:1.00000003pt;stroke-opacity:1"
         transform="matrix(-0.8,0,0,-0.8,-10,0)"
         inkscape:connector-curvature="0" />
    </marker>
    <marker
       inkscape:stockid="Arrow1Lend"
       orient="auto"
       refY="0"
       refX="0"
       id="marker4748"
       style="overflow:visible"
       inkscape:isstock="true">
      <path
         id="path4746"
         d="M 0,0 5,-5 -12.5,0 5,5 Z"
         style="fill:#000000;fill-opacity:1;fill-rule:evenodd;stroke:#000000;stroke-width:1.00000003pt;stroke-opacity:1"
         transform="matrix(-0.8,0,0,-0.8,-10,0)"
         inkscape:connector-curvature="0" />
    </marker>
    <marker
       inkscape:stockid="Arrow1Lend"
       orient="auto"
       refY="0"
       refX="0"
       id="marker4630"
       style="overflow:visible"
       inkscape:isstock="true">
      <path
         id="path4628"
         d="M 0,0 5,-5 -12.5,0 5,5 Z"
         style="fill:#000000;fill-opacity:1;fill-rule:evenodd;stroke:#000000;stroke-width:1.00000003pt;stroke-opacity:1"
         transform="matrix(-0.8,0,0,-0.8,-10,0)"
         inkscape:connector-curvature="0" />
    </marker>
    <marker
       inkscape:stockid="Arrow1Lend"
       orient="auto"
       refY="0"
       refX="0"
       id="marker4518"
       style="overflow:visible"
       inkscape:isstock="true">
      <path
         id="path4516"
         d="M 0,0 5,-5 -12.5,0 5,5 Z"
         style="fill:#000000;fill-opacity:1;fill-rule:evenodd;stroke:#000000;stroke-width:1.00000003pt;stroke-opacity:1"
         transform="matrix(-0.8,0,0,-0.8,-10,0)"
         inkscape:connector-curvature="0" />
    </marker>
    <marker
       inkscape:stockid="Arrow1Lend"
       orient="auto"
       refY="0"
       refX="0"
       id="marker4412"
       style="overflow:visible"
       inkscape:isstock="true">
      <path
         id="path4410"
         d="M 0,0 5,-5 -12.5,0 5,5 Z"
         style="fill:#000000;fill-opacity:1;fill-rule:evenodd;stroke:#000000;stroke-width:1.00000003pt;stroke-opacity:1"
         transform="matrix(-0.8,0,0,-0.8,-10,0)"
         inkscape:connector-curvature="0" />
    </marker>
    <marker
       inkscape:isstock="true"
       style="overflow:visible"
       id="marker4119"
       refX="0"
       refY="0"
       orient="auto"
       inkscape:stockid="Arrow1Lend"
       inkscape:collect="always">
      <path
         transform="matrix(-0.8,0,0,-0.8,-10,0)"
         style="fill:#000000;fill-opacity:1;fill-rule:evenodd;stroke:#000000;stroke-width:1.00000003pt;stroke-opacity:1"
         d="M 0,0 5,-5 -12.5,0 5,5 Z"
         id="path4117"
         inkscape:connector-curvature="0" />
    </marker>
    <marker
       inkscape:isstock="true"
       style="overflow:visible"
       id="marker4025"
       refX="0"
       refY="0"
       orient="auto"
       inkscape:stockid="Arrow1Lend">
      <path
         transform="matrix(-0.8,0,0,-0.8,-10,0)"
         style="fill:#000000;fill-opacity:1;fill-rule:evenodd;stroke:#000000;stroke-width:1.00000003pt;stroke-opacity:1"
         d="M 0,0 5,-5 -12.5,0 5,5 Z"
         id="path4023"
         inkscape:connector-curvature="0" />
    </marker>
    <marker
       inkscape:isstock="true"
       style="overflow:visible"
       id="marker3937"
       refX="0"
       refY="0"
       orient="auto"
       inkscape:stockid="Arrow1Lend">
      <path
         transform="matrix(-0.8,0,0,-0.8,-10,0)"
         style="fill:#000000;fill-opacity:1;fill-rule:evenodd;stroke:#000000;stroke-width:1.00000003pt;stroke-opacity:1"
         d="M 0,0 5,-5 -12.5,0 5,5 Z"
         id="path3935"
         inkscape:connector-curvature="0" />
    </marker>
    <marker
       inkscape:isstock="true"
       style="overflow:visible"
       id="marker3855"
       refX="0"
       refY="0"
       orient="auto"
       inkscape:stockid="Arrow1Lend">
      <path
         transform="matrix(-0.8,0,0,-0.8,-10,0)"
         style="fill:#000000;fill-opacity:1;fill-rule:evenodd;stroke:#000000;stroke-width:1.00000003pt;stroke-opacity:1"
         d="M 0,0 5,-5 -12.5,0 5,5 Z"
         id="path3853"
         inkscape:connector-curvature="0" />
    </marker>
    <marker
       inkscape:isstock="true"
       style="overflow:visible"
       id="marker3779"
       refX="0"
       refY="0"
       orient="auto"
       inkscape:stockid="Arrow1Lend">
      <path
         transform="matrix(-0.8,0,0,-0.8,-10,0)"
         style="fill:#000000;fill-opacity:1;fill-rule:evenodd;stroke:#000000;stroke-width:1.00000003pt;stroke-opacity:1"
         d="M 0,0 5,-5 -12.5,0 5,5 Z"
         id="path3777"
         inkscape:connector-curvature="0" />
    </marker>
    <marker
       inkscape:isstock="true"
       style="overflow:visible"
       id="marker3709"
       refX="0"
       refY="0"
       orient="auto"
       inkscape:stockid="Arrow1Lend">
      <path
         transform="matrix(-0.8,0,0,-0.8,-10,0)"
         style="fill:#000000;fill-opacity:1;fill-rule:evenodd;stroke:#000000;stroke-width:1.00000003pt;stroke-opacity:1"
         d="M 0,0 5,-5 -12.5,0 5,5 Z"
         id="path3707"
         inkscape:connector-curvature="0" />
    </marker>
    <marker
       inkscape:isstock="true"
       style="overflow:visible"
       id="marker3569"
       refX="0"
       refY="0"
       orient="auto"
       inkscape:stockid="Arrow1Lstart"
       inkscape:collect="always">
      <path
         transform="matrix(0.8,0,0,0.8,10,0)"
         style="fill:#000000;fill-opacity:1;fill-rule:evenodd;stroke:#000000;stroke-width:1.00000003pt;stroke-opacity:1"
         d="M 0,0 5,-5 -12.5,0 5,5 Z"
         id="path3567"
         inkscape:connector-curvature="0" />
    </marker>
    <marker
       inkscape:isstock="true"
       style="overflow:visible"
       id="marker3517"
       refX="0"
       refY="0"
       orient="auto"
       inkscape:stockid="Arrow1Lstart">
      <path
         transform="matrix(0.8,0,0,0.8,10,0)"
         style="fill:#000000;fill-opacity:1;fill-rule:evenodd;stroke:#000000;stroke-width:1.00000003pt;stroke-opacity:1"
         d="M 0,0 5,-5 -12.5,0 5,5 Z"
         id="path3515"
         inkscape:connector-curvature="0" />
    </marker>
    <marker
       inkscape:isstock="true"
       style="overflow:visible"
       id="marker3471"
       refX="0"
       refY="0"
       orient="auto"
       inkscape:stockid="Arrow1Lstart">
      <path
         transform="matrix(0.8,0,0,0.8,10,0)"
         style="fill:#000000;fill-opacity:1;fill-rule:evenodd;stroke:#000000;stroke-width:1.00000003pt;stroke-opacity:1"
         d="M 0,0 5,-5 -12.5,0 5,5 Z"
         id="path3469"
         inkscape:connector-curvature="0" />
    </marker>
    <marker
       inkscape:isstock="true"
       style="overflow:visible"
       id="marker3431"
       refX="0"
       refY="0"
       orient="auto"
       inkscape:stockid="Arrow1Lstart">
      <path
         transform="matrix(0.8,0,0,0.8,10,0)"
         style="fill:#000000;fill-opacity:1;fill-rule:evenodd;stroke:#000000;stroke-width:1.00000003pt;stroke-opacity:1"
         d="M 0,0 5,-5 -12.5,0 5,5 Z"
         id="path3429"
         inkscape:connector-curvature="0" />
    </marker>
    <marker
       inkscape:isstock="true"
       style="overflow:visible"
       id="marker3397"
       refX="0"
       refY="0"
       orient="auto"
       inkscape:stockid="Arrow1Lstart">
      <path
         transform="matrix(0.8,0,0,0.8,10,0)"
         style="fill:#000000;fill-opacity:1;fill-rule:evenodd;stroke:#000000;stroke-width:1.00000003pt;stroke-opacity:1"
         d="M 0,0 5,-5 -12.5,0 5,5 Z"
         id="path3395"
         inkscape:connector-curvature="0" />
    </marker>
    <marker
       inkscape:isstock="true"
       style="overflow:visible"
       id="marker3369"
       refX="0"
       refY="0"
       orient="auto"
       inkscape:stockid="Arrow1Lstart">
      <path
         transform="matrix(0.8,0,0,0.8,10,0)"
         style="fill:#000000;fill-opacity:1;fill-rule:evenodd;stroke:#000000;stroke-width:1.00000003pt;stroke-opacity:1"
         d="M 0,0 5,-5 -12.5,0 5,5 Z"
         id="path3367"
         inkscape:connector-curvature="0" />
    </marker>
    <marker
       inkscape:stockid="Arrow1Lend"
       orient="auto"
       refY="0"
       refX="0"
       id="Arrow1Lend"
       style="overflow:visible"
       inkscape:isstock="true"
       inkscape:collect="always">
      <path
         id="path2714"
         d="M 0,0 5,-5 -12.5,0 5,5 Z"
         style="fill:#000000;fill-opacity:1;fill-rule:evenodd;stroke:#000000;stroke-width:1.00000003pt;stroke-opacity:1"
         transform="matrix(-0.8,0,0,-0.8,-10,0)"
         inkscape:connector-curvature="0" />
    </marker>
    <marker
       inkscape:stockid="Arrow1Lend"
       orient="auto"
       refY="0"
       refX="0"
       id="marker10515-3"
       style="overflow:visible"
       inkscape:isstock="true">
      <path
         inkscape:connector-curvature="0"
         id="path10513-6"
         d="M 0,0 5,-5 -12.5,0 5,5 Z"
         style="fill:#000000;fill-opacity:1;fill-rule:evenodd;stroke:#000000;stroke-width:1.00000003pt;stroke-opacity:1"
         transform="matrix(-0.8,0,0,-0.8,-10,0)" />
    </marker>
  </defs>
  <sodipodi:namedview
     id="base"
     pagecolor="#ffffff"
     bordercolor="#666666"
     borderopacity="1.0"
     inkscape:pageopacity="0.0"
     inkscape:pageshadow="2"
     inkscape:zoom="0.98994952"
     inkscape:cx="529.40995"
     inkscape:cy="267.174"
     inkscape:document-units="mm"
     inkscape:current-layer="layer1"
     showgrid="false"
     inkscape:window-width="1676"
     inkscape:window-height="1025"
     inkscape:window-x="0"
     inkscape:window-y="0"
     inkscape:window-maximized="0"
     inkscape:object-paths="true"
     fit-margin-top="0"
     fit-margin-left="0"
     fit-margin-right="0"
     fit-margin-bottom="0" />
  <metadata
     id="metadata1962">
    <rdf:RDF>
      <cc:Work
         rdf:about="">
        <dc:format>image/svg+xml</dc:format>
        <dc:type
           rdf:resource="http://purl.org/dc/dcmitype/StillImage" />
        <dc:title></dc:title>
      </cc:Work>
    </rdf:RDF>
  </metadata>
  <g
     inkscape:label="Layer 1"
     inkscape:groupmode="layer"
     id="layer1"
     transform="translate(10.19621,-92.092201)">
    <rect
       style="fill:none;fill-opacity:1;fill-rule:nonzero;stroke:#000000;stroke-width:1.92567289;stroke-linecap:round;stroke-linejoin:round;stroke-miterlimit:4;stroke-dasharray:none;stroke-opacity:1"
       id="rect2510"
       width="139.46242"
       height="110.31228"
       x="97.838127"
       y="153.77003"
       ry="0" />
    <text
       transform="scale(0.9968899,1.0031198)"
       xml:space="preserve"
       style="font-style:normal;font-weight:normal;font-size:8.85703564px;line-height:1.25;font-family:sans-serif;letter-spacing:0px;word-spacing:0px;fill:#000000;fill-opacity:1;stroke:none;stroke-width:0.22142588"
       x="164.53835"
       y="208.7312"
       id="text2514"><tspan
         sodipodi:role="line"
         x="164.53835"
         y="208.7312"
         style="text-align:center;text-anchor:middle;stroke-width:0.22142588;-inkscape-font-specification:'sans-serif Bold';font-family:sans-serif;font-weight:bold;font-style:normal;font-stretch:normal;font-variant:normal"
         id="tspan2516">Nanopi NEO</tspan><tspan
         id="tspan2526"
         sodipodi:role="line"
         x="164.53835"
         y="219.80249"
         style="text-align:center;text-anchor:middle;stroke-width:0.22142588;-inkscape-font-specification:'sans-serif Bold';font-family:sans-serif;font-weight:bold;font-style:normal;font-stretch:normal;font-variant:normal">CORE2</tspan></text>
    <g
       transform="matrix(0.8342824,0,0,0.83949616,137.07111,53.525138)"
       id="g2540">
      <rect
         style="fill:none;fill-opacity:1;fill-rule:nonzero;stroke:#000000;stroke-width:0.8599537;stroke-linecap:round;stroke-linejoin:round;stroke-miterlimit:4;stroke-dasharray:none;stroke-opacity:1"
         id="rect2528"
         width="38.316639"
         height="30.848143"
         x="-46.485996"
         y="219.42894" />
      <text
         xml:space="preserve"
         style="font-style:normal;font-weight:normal;font-size:10.58333302px;line-height:1.25;font-family:sans-serif;letter-spacing:0px;word-spacing:0px;fill:#000000;fill-opacity:1;stroke:none;stroke-width:0.26458332"
         x="-27.139057"
         y="232.09091"
         id="text2532"><tspan
           sodipodi:role="line"
           id="tspan2530"
           x="-27.139057"
           y="232.09091"
           style="text-align:center;text-anchor:middle;stroke-width:0.26458332">SD</tspan><tspan
           sodipodi:role="line"
           x="-27.139057"
           y="245.32008"
           style="text-align:center;text-anchor:middle;stroke-width:0.26458332"
           id="tspan2534">Card</tspan></text>
    </g>
    <g
       id="g2540-6"
       transform="matrix(0.8342824,0,0,0.83949616,182.12394,-12.208636)">
      <rect
         style="fill:#ffffff;fill-opacity:1;fill-rule:nonzero;stroke:#000000;stroke-width:0.9124651;stroke-linecap:round;stroke-linejoin:round;stroke-miterlimit:4;stroke-dasharray:none;stroke-opacity:1"
         id="rect2528-1"
         width="43.177738"
         height="30.820444"
         x="-48.715111"
         y="219.44279" />
      <text
         xml:space="preserve"
         style="font-style:normal;font-weight:normal;font-size:10.58333302px;line-height:1.25;font-family:sans-serif;letter-spacing:0px;word-spacing:0px;fill:#000000;fill-opacity:1;stroke:none;stroke-width:0.26458332"
         x="-27.139057"
         y="232.09091"
         id="text2532-0"><tspan
           sodipodi:role="line"
           id="tspan2530-6"
           x="-27.139057"
           y="232.09091"
           style="text-align:center;text-anchor:middle;stroke-width:0.26458332">eMMC</tspan><tspan
           sodipodi:role="line"
           x="-27.139057"
           y="245.32008"
           style="text-align:center;text-anchor:middle;stroke-width:0.26458332"
           id="tspan2534-3">8-32GB</tspan></text>
    </g>
    <g
       id="g2540-2"
       transform="matrix(0.8342824,0,0,0.83949616,185.59268,38.878197)">
      <rect
         style="fill:#ffffff;fill-opacity:1;fill-rule:nonzero;stroke:#000000;stroke-width:0.8599537;stroke-linecap:round;stroke-linejoin:round;stroke-miterlimit:4;stroke-dasharray:none;stroke-opacity:1"
         id="rect2528-0"
         width="38.316639"
         height="30.848143"
         x="-46.485996"
         y="219.42894" />
      <text
         xml:space="preserve"
         style="font-style:normal;font-weight:normal;font-size:10.58333302px;line-height:1.25;font-family:sans-serif;letter-spacing:0px;word-spacing:0px;fill:#000000;fill-opacity:1;stroke:none;stroke-width:0.26458332"
         x="-27.139057"
         y="232.09091"
         id="text2532-6"><tspan
           sodipodi:role="line"
           x="-27.139057"
           y="232.09091"
           style="text-align:center;text-anchor:middle;stroke-width:0.26458332"
           id="tspan2534-5">1GB</tspan><tspan
           id="tspan2589"
           sodipodi:role="line"
           x="-27.139057"
           y="245.32008"
           style="text-align:center;text-anchor:middle;stroke-width:0.26458332">DDR3</tspan></text>
    </g>
    <flowRoot
       style="font-style:normal;font-weight:normal;font-size:40px;line-height:1.25;font-family:sans-serif;letter-spacing:0px;word-spacing:0px;fill:#000000;fill-opacity:1;stroke:none"
       id="flowRoot2699"
       xml:space="preserve"
       transform="translate(61.988095,38.175595)"><flowRegion
         id="flowRegion2701"><rect
           y="-54.827332"
           x="1200.0613"
           height="1454.6196"
           width="1527.3506"
           id="rect2703" /></flowRegion><flowPara
         id="flowPara2705" /></flowRoot>    <g
       transform="matrix(0.8342824,0,0,0.83949616,97.719728,60.089781)"
       id="g3051-5">
      <rect
         style="fill:none;fill-opacity:1;fill-rule:nonzero;stroke:#235b7e;stroke-width:1.20212448;stroke-linecap:round;stroke-linejoin:round;stroke-miterlimit:4;stroke-dasharray:none;stroke-opacity:1"
         id="rect2591-4"
         width="46.513348"
         height="10.793005"
         x="-62.450207"
         y="161.09641" />
      <text
         xml:space="preserve"
         style="font-style:normal;font-weight:normal;font-size:10.58333302px;line-height:1.25;font-family:sans-serif;letter-spacing:0px;word-spacing:0px;fill:#000000;fill-opacity:1;stroke:none;stroke-width:0.26458332"
         x="-61.45554"
         y="168.69592"
         id="text2595-7"><tspan
           sodipodi:role="line"
           x="-61.45554"
           y="168.69592"
           style="font-size:6.3499999px;stroke-width:0.26458332"
           id="tspan2597-5">Ethernet GBts</tspan></text>
    </g>
    <text
       transform="scale(0.9968899,1.0031198)"
       id="text3084"
       y="201.17542"
       x="100.1351"
       style="font-style:normal;font-weight:normal;font-size:8.85703564px;line-height:1.25;font-family:sans-serif;letter-spacing:0px;word-spacing:0px;fill:#000000;fill-opacity:1;stroke:none;stroke-width:0.22142588"
       xml:space="preserve"><tspan
         style="font-size:5.31422138px;stroke-width:0.22142588"
         y="201.17542"
         x="100.1351"
         id="tspan3082"
         sodipodi:role="line">LAN</tspan></text>
    <g
       transform="matrix(0.8342824,0,0,0.83949616,97.115674,48.590425)"
       id="g3051-5-6-4">
      <rect
         style="fill:none;fill-opacity:1;fill-rule:nonzero;stroke:#235b7e;stroke-width:1.17549539;stroke-linecap:round;stroke-linejoin:round;stroke-miterlimit:4;stroke-dasharray:none;stroke-opacity:1"
         id="rect2591-4-9-5"
         width="45.009495"
         height="10.664948"
         x="-61.739731"
         y="161.16043" />
      <text
         xml:space="preserve"
         style="font-style:normal;font-weight:normal;font-size:10.58333302px;line-height:1.25;font-family:sans-serif;letter-spacing:0px;word-spacing:0px;fill:#000000;fill-opacity:1;stroke:none;stroke-width:0.26458332"
         x="-59.978203"
         y="168.69592"
         id="text2595-7-3-2"><tspan
           sodipodi:role="line"
           x="-59.978203"
           y="168.69592"
           style="font-size:6.3499999px;stroke-width:0.26458332"
           id="tspan2597-5-7-5">USB Host(x2)</tspan></text>
    </g>
    <g
       transform="matrix(0.8342824,0,0,0.83949616,170.9834,62.468887)"
       id="g3188-4">
      <rect
         style="fill:none;fill-opacity:0.844;fill-rule:nonzero;stroke:#006c23;stroke-width:1.04700005;stroke-linecap:round;stroke-linejoin:round;stroke-miterlimit:4;stroke-dasharray:none;stroke-opacity:1"
         id="rect3153-7"
         width="48.380955"
         height="33.261906"
         x="-25.324406"
         y="64.166672" />
      <text
         xml:space="preserve"
         style="font-style:normal;font-weight:normal;font-size:6.3499999px;line-height:1.25;font-family:sans-serif;letter-spacing:0px;word-spacing:0px;fill:#000000;fill-opacity:1;stroke:none;stroke-width:0.26458332"
         x="-1.1438951"
         y="70.132118"
         id="text3165-4"><tspan
           sodipodi:role="line"
           x="-1.1438949"
           y="70.132118"
           style="text-align:center;text-anchor:middle;stroke-width:0.26458332"
           id="tspan3169-0">CAN</tspan><tspan
           id="tspan3233"
           sodipodi:role="line"
           x="-0.13310342"
           y="78.069618"
           style="text-align:center;text-anchor:middle;stroke-width:0.26458332">Controller and </tspan><tspan
           id="tspan3237"
           sodipodi:role="line"
           x="-1.1438949"
           y="86.007118"
           style="text-align:center;text-anchor:middle;stroke-width:0.26458332">Tranceiver</tspan></text>
      <text
         xml:space="preserve"
         style="font-style:normal;font-weight:normal;font-size:6.3499999px;line-height:1.25;font-family:sans-serif;letter-spacing:0px;word-spacing:0px;fill:#000000;fill-opacity:1;stroke:none;stroke-width:0.26458332"
         x="-12.356545"
         y="93.919113"
         id="text3173-7"><tspan
           sodipodi:role="line"
           x="-12.356545"
           y="93.919113"
           style="font-size:3.52777767px;stroke-width:0.26458332"
           id="tspan3177-8">(HI-3110PSIF)</tspan></text>
    </g>
    <g
       transform="matrix(0.8342824,0,0,0.83949616,217.52264,62.468887)"
       id="g3188-4-6">
      <rect
         style="fill:none;fill-opacity:0.844;fill-rule:nonzero;stroke:#006c23;stroke-width:1.04700005;stroke-linecap:round;stroke-linejoin:round;stroke-miterlimit:4;stroke-dasharray:none;stroke-opacity:1"
         id="rect3153-7-8"
         width="48.380955"
         height="33.261906"
         x="-25.324406"
         y="64.166672" />
      <text
         xml:space="preserve"
         style="font-style:normal;font-weight:normal;font-size:6.3499999px;line-height:1;font-family:sans-serif;letter-spacing:0px;word-spacing:0px;fill:#000000;fill-opacity:1;stroke:none;stroke-width:0.26458332"
         x="-1.1438951"
         y="70.132118"
         id="text3165-4-8"><tspan
           id="tspan3233-3"
           sodipodi:role="line"
           x="-1.1438956"
           y="70.132118"
           style="line-height:1;text-align:center;text-anchor:middle;stroke-width:0.26458332">USB HUB and</tspan><tspan
           sodipodi:role="line"
           x="-1.1438951"
           y="76.482117"
           style="line-height:1;text-align:center;text-anchor:middle;stroke-width:0.26458332"
           id="tspan7716">USB to</tspan><tspan
           id="tspan3237-1"
           sodipodi:role="line"
           x="-0.1331047"
           y="82.832115"
           style="line-height:1;text-align:center;text-anchor:middle;stroke-width:0.26458332">Ethernet </tspan><tspan
           id="tspan3281"
           sodipodi:role="line"
           x="-1.1438946"
           y="89.182121"
           style="line-height:1;text-align:center;text-anchor:middle;stroke-width:0.26458332">Controller</tspan></text>
      <text
         xml:space="preserve"
         style="font-style:normal;font-weight:normal;font-size:6.3499999px;line-height:1.25;font-family:sans-serif;letter-spacing:0px;word-spacing:0px;fill:#000000;fill-opacity:1;stroke:none;stroke-width:0.26458332"
         x="-15.002377"
         y="93.919113"
         id="text3173-7-4"><tspan
           id="tspan3283"
           sodipodi:role="line"
           x="-15.002377"
           y="93.919113"
           style="font-size:3.52777767px;stroke-width:0.26458332">(LAN9514I-JZX)</tspan></text>
    </g>
    <g
       transform="matrix(0.85139538,0,0,0.85139538,95.244849,53.639549)"
       id="g1046">
      <rect
         style="fill:none;fill-opacity:1;fill-rule:nonzero;stroke:#235b7e;stroke-width:1.02915621;stroke-linecap:round;stroke-linejoin:round;stroke-miterlimit:4;stroke-dasharray:none;stroke-opacity:1"
         id="rect2591-4-9-5-0"
         width="42.280693"
         height="10.570111"
         x="-58.36412"
         y="140.67938" />
      <text
         xml:space="preserve"
         style="font-style:normal;font-weight:normal;font-size:10.40296364px;line-height:1.25;font-family:sans-serif;letter-spacing:0px;word-spacing:0px;fill:#000000;fill-opacity:1;stroke:none;stroke-width:0.26007408"
         x="-56.518383"
         y="147.67593"
         id="text2595-7-3-2-6"
         transform="scale(0.9968899,1.0031198)"><tspan
           sodipodi:role="line"
           x="-56.518383"
           y="147.67593"
           style="font-size:6.24177837px;stroke-width:0.26007408"
           id="tspan2597-5-7-5-8">UART Debug</tspan></text>
    </g>
    <path
       style="display:inline;fill:none;fill-rule:evenodd;stroke:#000000;stroke-width:0.22142588px;stroke-linecap:butt;stroke-linejoin:miter;stroke-opacity:1;marker-start:url(#marker5674);marker-end:url(#marker12368)"
       d="m 79.697511,176.34037 15.273472,-0.10235"
       id="path5652"
       inkscape:connector-type="polyline"
       inkscape:connector-curvature="0" />
    <g
       transform="matrix(0.62697437,0,0,0.83949616,134.67847,45.071946)"
       id="g3345">
      <rect
         style="fill:none;fill-opacity:0.844;fill-rule:nonzero;stroke:#006c23;stroke-width:1.04700005;stroke-linecap:round;stroke-linejoin:round;stroke-miterlimit:4;stroke-dasharray:none;stroke-opacity:1"
         id="rect3311"
         width="64.679222"
         height="42.763123"
         x="170.00186"
         y="217.6649" />
      <text
         transform="scale(1.1927662,0.83838728)"
         xml:space="preserve"
         style="font-style:normal;font-weight:normal;font-size:7.57406521px;line-height:1.25;font-family:sans-serif;letter-spacing:0px;word-spacing:0px;fill:#000000;fill-opacity:1;stroke:none;stroke-width:0.31558603"
         x="168.87206"
         y="282.5762"
         id="text3315"><tspan
           sodipodi:role="line"
           x="168.87206"
           y="282.5762"
           style="text-align:center;text-anchor:middle;stroke-width:0.31558603"
           id="tspan3317">Power</tspan><tspan
           sodipodi:role="line"
           x="168.87206"
           y="292.04379"
           style="text-align:center;text-anchor:middle;stroke-width:0.31558603"
           id="tspan3321">Supply</tspan></text>
      <text
         xml:space="preserve"
         style="font-style:normal;font-weight:normal;font-size:6.3499999px;line-height:1.25;font-family:sans-serif;letter-spacing:0px;word-spacing:0px;fill:#000000;fill-opacity:1;stroke:none;stroke-width:0.26458332"
         x="177.75266"
         y="223.79059"
         id="text3325"><tspan
           sodipodi:role="line"
           id="tspan3323"
           x="177.75266"
           y="223.79059"
           style="stroke-width:0.26458332">3V</tspan></text>
      <text
         xml:space="preserve"
         style="font-style:normal;font-weight:normal;font-size:6.3499999px;line-height:1.25;font-family:sans-serif;letter-spacing:0px;word-spacing:0px;fill:#000000;fill-opacity:1;stroke:none;stroke-width:0.26458332"
         x="197.01759"
         y="223.6624"
         id="text3329"><tspan
           sodipodi:role="line"
           id="tspan3327"
           x="197.01759"
           y="223.6624"
           style="stroke-width:0.26458332">5V</tspan></text>
      <text
         xml:space="preserve"
         style="font-style:normal;font-weight:normal;font-size:6.3499999px;line-height:1.25;font-family:sans-serif;letter-spacing:0px;word-spacing:0px;fill:#000000;fill-opacity:1;stroke:none;stroke-width:0.26458332"
         x="217.99286"
         y="223.9296"
         id="text3333"><tspan
           sodipodi:role="line"
           id="tspan3331"
           x="217.99286"
           y="223.9296"
           style="stroke-width:0.26458332">12V</tspan></text>
    </g>
    <path
       inkscape:connector-curvature="0"
       inkscape:connector-type="polyline"
       id="path3347"
       d="m 120.47763,151.96056 -3.31169,-7.70076"
       style="display:inline;fill:none;fill-rule:evenodd;stroke:#000000;stroke-width:0.22177455;stroke-linecap:butt;stroke-linejoin:miter;stroke-miterlimit:4;stroke-dasharray:none;stroke-opacity:1;marker-start:url(#marker1136);marker-end:url(#marker3709)"
       inkscape:connection-end="#g5840" />
    <path
       inkscape:connection-end="#g3188-4"
       inkscape:connection-start="#rect2510"
       inkscape:connector-curvature="0"
       inkscape:connector-type="polyline"
       id="path3349"
       d="m 167.40107,153.77003 0.29851,-9.51023"
       style="fill:none;fill-rule:evenodd;stroke:#000000;stroke-width:0.22177455;stroke-linecap:butt;stroke-linejoin:miter;stroke-miterlimit:4;stroke-dasharray:none;stroke-opacity:1;marker-start:url(#marker9448);marker-end:url(#Arrow1Lend)" />
    <path
       inkscape:connection-end="#g3188-4-6"
       inkscape:connection-start="#rect2510"
       inkscape:connector-curvature="0"
       inkscape:connector-type="polyline"
       id="path3351"
       d="m 199.18807,153.77003 5.92754,-9.51023"
       style="fill:none;fill-rule:evenodd;stroke:#000000;stroke-width:0.22177455;stroke-linecap:butt;stroke-linejoin:miter;stroke-miterlimit:4;stroke-dasharray:none;stroke-opacity:1;marker-start:url(#marker8918);marker-end:url(#marker4119)" />
    <text
       transform="scale(0.9968899,1.0031198)"
       id="text4225-9"
       y="189.70921"
       x="99.84967"
       style="font-style:normal;font-weight:normal;font-size:5.31422138px;line-height:1.25;font-family:sans-serif;letter-spacing:0px;word-spacing:0px;fill:#000000;fill-opacity:1;stroke:none;stroke-width:0.22142588"
       xml:space="preserve"><tspan
         style="stroke-width:0.22142588"
         y="189.70921"
         x="99.84967"
         id="tspan4223-2"
         sodipodi:role="line">USB</tspan></text>
    <text
       transform="scale(0.9968899,1.0031198)"
       id="text4255"
       y="179.02556"
       x="99.84967"
       style="font-style:normal;font-weight:normal;font-size:5.31422138px;line-height:1.25;font-family:sans-serif;letter-spacing:0px;word-spacing:0px;fill:#000000;fill-opacity:1;stroke:none;stroke-width:0.22142588"
       xml:space="preserve"><tspan
         style="stroke-width:0.22142588"
         y="179.02556"
         x="99.84967"
         id="tspan4253"
         sodipodi:role="line">UART0 (2)</tspan></text>
    <text
       transform="scale(0.9968899,1.0031198)"
       id="text4259"
       y="159.60593"
       x="105.48708"
       style="font-style:normal;font-weight:normal;font-size:5.31422138px;line-height:1.25;font-family:sans-serif;letter-spacing:0px;word-spacing:0px;fill:#000000;fill-opacity:1;stroke:none;stroke-width:0.22142588"
       xml:space="preserve"><tspan
         style="stroke-width:0.22142588"
         y="159.60593"
         x="105.48708"
         id="tspan4257"
         sodipodi:role="line">SPI0(4) or I2C2</tspan></text>
    <text
       transform="scale(0.9968899,1.0031198)"
       id="text4263"
       y="160.0175"
       x="163.36546"
       style="font-style:normal;font-weight:normal;font-size:5.31422138px;line-height:1.25;font-family:sans-serif;letter-spacing:0px;word-spacing:0px;fill:#000000;fill-opacity:1;stroke:none;stroke-width:0.22142588"
       xml:space="preserve"><tspan
         style="stroke-width:0.22142588"
         y="160.0175"
         x="163.36546"
         id="tspan4261"
         sodipodi:role="line">SPI1</tspan></text>
    <text
       transform="scale(0.9968899,1.0031198)"
       id="text4267"
       y="159.80971"
       x="198.312"
       style="font-style:normal;font-weight:normal;font-size:5.31422138px;line-height:1.25;font-family:sans-serif;letter-spacing:0px;word-spacing:0px;fill:#000000;fill-opacity:1;stroke:none;stroke-width:0.22142588"
       xml:space="preserve"><tspan
         style="stroke-width:0.22142588"
         y="159.80971"
         x="198.312"
         id="tspan4265"
         sodipodi:role="line">USB1</tspan></text>
    <g
       id="g4313"
       transform="matrix(0.8342824,0,0,0.83949616,267.16132,113.549)">
      <rect
         style="fill:none;fill-opacity:0.844;fill-rule:nonzero;stroke:#006c23;stroke-width:1.04700005;stroke-linecap:round;stroke-linejoin:round;stroke-miterlimit:4;stroke-dasharray:none;stroke-opacity:1"
         id="rect3153-7-8-9"
         width="35.61459"
         height="10.66816"
         x="-19.319199"
         y="64.691231" />
      <text
         xml:space="preserve"
         style="font-style:normal;font-weight:normal;font-size:6.3499999px;line-height:1.25;font-family:sans-serif;letter-spacing:0px;word-spacing:0px;fill:#000000;fill-opacity:1;stroke:none;stroke-width:0.26458332"
         x="-1.6498798"
         y="71.777145"
         id="text3165-4-8-5"><tspan
           id="tspan3281-8"
           sodipodi:role="line"
           x="-1.6498799"
           y="71.777145"
           style="text-align:center;text-anchor:middle;stroke-width:0.26458332">2/4 Relay</tspan></text>
    </g>
    <g
       id="g5309"
       transform="matrix(0.62697437,0,0,0.83949616,253.5759,50.125583)">
      <rect
         style="fill:none;fill-opacity:0.844;fill-rule:nonzero;stroke:#006c23;stroke-width:1.04700005;stroke-linecap:round;stroke-linejoin:round;stroke-miterlimit:4;stroke-dasharray:none;stroke-opacity:1"
         id="rect3153-7-8-9-1"
         width="35.61459"
         height="10.66816"
         x="1.4606053"
         y="175.39168" />
      <text
         transform="scale(1.0850895,0.92158297)"
         xml:space="preserve"
         style="font-style:normal;font-weight:normal;font-size:6.89031792px;line-height:1.25;font-family:sans-serif;letter-spacing:0px;word-spacing:0px;fill:#000000;fill-opacity:1;stroke:none;stroke-width:0.28709656"
         x="17.517952"
         y="198.67233"
         id="text3165-4-8-5-5"><tspan
           id="tspan3281-8-9"
           sodipodi:role="line"
           x="17.517952"
           y="198.67233"
           style="text-align:center;text-anchor:middle;stroke-width:0.28709656">Switch</tspan></text>
    </g>
    <path
       inkscape:connector-curvature="0"
       inkscape:connector-type="polyline"
       id="path4380"
       d="M 247.35588,226.09417 260.937,204.87004"
       style="display:inline;fill:none;fill-rule:evenodd;stroke:#000000;stroke-width:0.19195379px;stroke-linecap:butt;stroke-linejoin:miter;stroke-opacity:1;marker-end:url(#marker4748)" />
    <path
       inkscape:connector-curvature="0"
       inkscape:connector-type="polyline"
       id="path4382"
       d="m 260.27136,226.41147 2.92334,-21.54143"
       style="fill:none;fill-rule:evenodd;stroke:#000000;stroke-width:0.19195379px;stroke-linecap:butt;stroke-linejoin:miter;stroke-opacity:1;marker-end:url(#marker4630)" />
    <path
       inkscape:connector-curvature="0"
       inkscape:connector-type="polyline"
       id="path4384"
       d="m 273.66082,226.09417 -8.14086,-21.22413"
       style="display:inline;fill:none;fill-rule:evenodd;stroke:#000000;stroke-width:0.19195379px;stroke-linecap:butt;stroke-linejoin:miter;stroke-opacity:1;marker-end:url(#marker4518)" />
    <path
       inkscape:connection-end="#g4313"
       inkscape:connector-curvature="0"
       inkscape:connector-type="polyline"
       id="path4388"
       d="m 263.83934,195.91415 0.15769,-19.10123"
       style="fill:none;fill-rule:evenodd;stroke:#000000;stroke-width:0.22142588px;stroke-linecap:butt;stroke-linejoin:miter;stroke-opacity:1;marker-end:url(#marker4872)" />
    <g
       transform="matrix(0.8342824,0,0,0.83949616,113.46129,51.754495)"
       id="g10041">
      <rect
         style="fill:none;fill-opacity:0.844;fill-rule:nonzero;stroke:#006c23;stroke-width:1.04700005;stroke-linecap:round;stroke-linejoin:round;stroke-miterlimit:4;stroke-dasharray:none;stroke-opacity:1"
         id="rect3153-7-8-9-9"
         width="43.129131"
         height="12.919102"
         x="168.76048"
         y="76.929558" />
      <text
         xml:space="preserve"
         style="font-style:normal;font-weight:normal;font-size:6.3499999px;line-height:1.25;font-family:sans-serif;letter-spacing:0px;word-spacing:0px;fill:#000000;fill-opacity:1;stroke:none;stroke-width:0.26458332"
         x="190.49094"
         y="85.756409"
         id="text3165-4-8-5-0"><tspan
           id="tspan3281-8-91"
           sodipodi:role="line"
           x="190.49094"
           y="85.756409"
           style="text-align:center;text-anchor:middle;stroke-width:0.26458332">Transistors ?</tspan></text>
    </g>
    <path
       inkscape:connection-start="#rect2510"
       inkscape:connector-curvature="0"
       inkscape:connector-type="polyline"
       id="path5292"
       d="m 226.18676,153.77003 30.98601,-27.51839"
       style="fill:none;fill-rule:evenodd;stroke:#000000;stroke-width:0.22142588px;stroke-linecap:butt;stroke-linejoin:miter;stroke-opacity:1;marker-end:url(#marker5002)" />
    <text
       transform="scale(0.9968899,1.0031198)"
       id="text5315"
       y="159.26692"
       x="218.71269"
       style="font-style:normal;font-weight:normal;font-size:5.31422138px;line-height:1.25;font-family:sans-serif;letter-spacing:0px;word-spacing:0px;fill:#000000;fill-opacity:1;stroke:none;stroke-width:0.22142588"
       xml:space="preserve"><tspan
         style="stroke-width:0.22142588"
         y="159.26692"
         x="218.71269"
         id="tspan5313"
         sodipodi:role="line">GPIOs</tspan></text>
    <path
       inkscape:connector-curvature="0"
       inkscape:connector-type="polyline"
       id="path5832"
       d="m 95.984147,197.0079 v 0"
       style="fill:none;fill-rule:evenodd;stroke:#000000;stroke-width:0.22142588px;stroke-linecap:butt;stroke-linejoin:miter;stroke-opacity:1" />
    <path
       inkscape:connector-curvature="0"
       inkscape:connector-type="polyline"
       id="path5848"
       d="m 95.824303,186.62009 -14.520352,0.17495"
       style="display:inline;fill:none;fill-rule:evenodd;stroke:#000000;stroke-width:0.17714112px;stroke-linecap:butt;stroke-linejoin:miter;stroke-opacity:1;marker-start:url(#marker12704);marker-end:url(#marker10676)" />
    <g
       transform="matrix(0.8342824,0,0,0.83949616,97.115674,80.159512)"
       id="g3051-5-7">
      <rect
         style="fill:none;fill-opacity:1;fill-rule:nonzero;stroke:#235b7e;stroke-width:1.04700005;stroke-linecap:round;stroke-linejoin:round;stroke-miterlimit:4;stroke-dasharray:none;stroke-opacity:1"
         id="rect2591-4-1"
         width="35.283535"
         height="10.793005"
         x="-61.80373"
         y="161.09641" />
      <text
         xml:space="preserve"
         style="font-style:normal;font-weight:normal;font-size:10.58333302px;line-height:1.25;font-family:sans-serif;letter-spacing:0px;word-spacing:0px;fill:#000000;fill-opacity:1;stroke:none;stroke-width:0.26458332"
         x="-58.953308"
         y="168.76254"
         id="text2595-7-1"><tspan
           sodipodi:role="line"
           x="-58.953308"
           y="168.76254"
           style="font-size:6.3499999px;stroke-width:0.26458332"
           id="tspan2597-5-5">UART(x2)</tspan></text>
    </g>
    <g
       transform="matrix(0.8342824,0,0,0.83949616,250.77133,-41.114788)"
       id="g3051-5-73">
      <rect
         style="fill:none;fill-opacity:1;fill-rule:nonzero;stroke:#235b7e;stroke-width:1.38365769;stroke-linecap:round;stroke-linejoin:round;stroke-miterlimit:4;stroke-dasharray:none;stroke-opacity:1"
         id="rect2591-4-6"
         width="61.622032"
         height="10.793005"
         x="-71.797974"
         y="161.09641" />
      <text
         xml:space="preserve"
         style="font-style:normal;font-weight:normal;font-size:10.58333302px;line-height:1.25;font-family:sans-serif;letter-spacing:0px;word-spacing:0px;fill:#000000;fill-opacity:1;stroke:none;stroke-width:0.26458332"
         x="-70.561531"
         y="168.69592"
         id="text2595-7-5"><tspan
           sodipodi:role="line"
           x="-70.561531"
           y="168.69592"
           style="font-size:6.3499999px;stroke-width:0.26458332"
           id="tspan2597-5-63">Ethernet 100MBits</tspan></text>
    </g>
    <path
       inkscape:connection-end="#g3051-5-7"
       inkscape:connector-curvature="0"
       inkscape:connector-type="polyline"
       id="path5957"
       d="M 95.710527,218.51199 74.990342,218.4929"
       style="display:inline;fill:none;fill-rule:evenodd;stroke:#000000;stroke-width:0.22142588px;stroke-linecap:butt;stroke-linejoin:miter;stroke-opacity:1;marker-start:url(#marker11404);marker-end:url(#marker1329)" />
    <text
       transform="scale(0.9968899,1.0031198)"
       id="text5963"
       y="220.91156"
       x="99.84967"
       style="font-style:normal;font-weight:normal;font-size:5.31422138px;line-height:1.25;font-family:sans-serif;letter-spacing:0px;word-spacing:0px;fill:#000000;fill-opacity:1;stroke:none;stroke-width:0.22142588"
       xml:space="preserve"><tspan
         style="stroke-width:0.22142588"
         y="220.91156"
         x="99.84967"
         id="tspan5961"
         sodipodi:role="line">UART (8)</tspan></text>
    <g
       transform="matrix(0.8342824,0,0,0.83949616,206.88089,-41.256094)"
       id="g3051-5-73-9">
      <rect
         style="fill:none;fill-opacity:1;fill-rule:nonzero;stroke:#235b7e;stroke-width:1.04700005;stroke-linecap:round;stroke-linejoin:round;stroke-miterlimit:4;stroke-dasharray:none;stroke-opacity:1"
         id="rect2591-4-6-4"
         width="35.283535"
         height="10.793005"
         x="-61.80373"
         y="161.09641" />
      <text
         xml:space="preserve"
         style="font-style:normal;font-weight:normal;font-size:10.58333302px;line-height:1.25;font-family:sans-serif;letter-spacing:0px;word-spacing:0px;fill:#000000;fill-opacity:1;stroke:none;stroke-width:0.26458332"
         x="-50.794117"
         y="168.8044"
         id="text2595-7-5-8"><tspan
           sodipodi:role="line"
           x="-50.794117"
           y="168.8044"
           style="font-size:6.3499999px;stroke-width:0.26458332"
           id="tspan2597-5-63-1">CAN</tspan></text>
    </g>
    <g
       transform="matrix(0.8342824,0,0,0.83949616,301.5215,-41.256094)"
       id="g3051-5-73-0">
      <rect
         style="fill:none;fill-opacity:1;fill-rule:nonzero;stroke:#235b7e;stroke-width:1.27216494;stroke-linecap:round;stroke-linejoin:round;stroke-miterlimit:4;stroke-dasharray:none;stroke-opacity:1"
         id="rect2591-4-6-8"
         width="53.201229"
         height="10.567841"
         x="-61.691147"
         y="161.20898" />
      <text
         xml:space="preserve"
         style="font-style:normal;font-weight:normal;font-size:10.58333302px;line-height:1.25;font-family:sans-serif;letter-spacing:0px;word-spacing:0px;fill:#000000;fill-opacity:1;stroke:none;stroke-width:0.26458332"
         x="-53.652855"
         y="168.69592"
         id="text2595-7-5-85"><tspan
           sodipodi:role="line"
           x="-53.652855"
           y="168.69592"
           style="font-size:6.3499999px;stroke-width:0.26458332"
           id="tspan2597-5-63-0">GPIOs(5-19)</tspan></text>
    </g>
    <path
       inkscape:connection-end="#g4313"
       inkscape:connector-curvature="0"
       inkscape:connector-type="polyline"
       id="path6307"
       d="m 234.97957,170.88047 16.06408,0.001"
       style="display:inline;fill:none;fill-rule:evenodd;stroke:#000000;stroke-width:0.22142588px;stroke-linecap:butt;stroke-linejoin:miter;stroke-opacity:1;marker-end:url(#marker1507)" />
    <text
       transform="scale(0.9968899,1.0031198)"
       id="text6311"
       y="173.46489"
       x="211.25604"
       style="font-style:normal;font-weight:normal;font-size:5.31422138px;line-height:1.25;font-family:sans-serif;letter-spacing:0px;word-spacing:0px;fill:#000000;fill-opacity:1;stroke:none;stroke-width:0.22142588"
       xml:space="preserve"><tspan
         style="stroke-width:0.22142588"
         y="173.46489"
         x="211.25604"
         id="tspan6309"
         sodipodi:role="line">GPIOs (2)</tspan></text>
    <path
       inkscape:connection-end="#g3051-5-73-9"
       inkscape:connection-start="#g3188-4"
       inkscape:connector-curvature="0"
       inkscape:connector-type="polyline"
       id="path10018"
       d="m 168.18338,116.33656 -1e-5,-13.29215"
       style="fill:none;fill-rule:evenodd;stroke:#000000;stroke-width:0.22142588px;stroke-linecap:butt;stroke-linejoin:miter;stroke-opacity:1;marker-start:url(#marker9198);marker-end:url(#marker10053)" />
    <path
       inkscape:connection-end="#g3051-5-73"
       inkscape:connection-start="#g3188-4-6"
       inkscape:connector-curvature="0"
       inkscape:connector-type="polyline"
       id="path10020"
       d="m 214.72264,116.33656 10e-6,-13.15085"
       style="fill:none;fill-rule:evenodd;stroke:#000000;stroke-width:0.22142588px;stroke-linecap:butt;stroke-linejoin:miter;stroke-opacity:1;marker-start:url(#marker3569);marker-end:url(#marker10201)" />
    <path
       inkscape:connection-end="#g3051-5-73-0"
       inkscape:connection-start="#g10041"
       inkscape:connector-curvature="0"
       inkscape:connector-type="polyline"
       id="path10043"
       d="m 270.39214,116.33656 -3e-5,-13.38667"
       style="fill:none;fill-rule:evenodd;stroke:#000000;stroke-width:0.22142588px;stroke-linecap:butt;stroke-linejoin:miter;stroke-opacity:1;marker-end:url(#marker10355)" />
    <rect
       y="94.327644"
       x="46.023785"
       height="63.8489"
       width="48.533863"
       id="rect11051"
       style="fill:none;fill-opacity:1;fill-rule:nonzero;stroke:#000000;stroke-width:1.00633764;stroke-linecap:round;stroke-linejoin:round;stroke-miterlimit:4;stroke-dasharray:none;stroke-opacity:0.50800003"
       inkscape:connector-avoid="true" />
    <g
       style="stroke-width:1.12376225;stroke-miterlimit:4;stroke-dasharray:none"
       transform="matrix(0.83428242,0,0,0.83949618,10.815775,73.917954)"
       id="g3188-9">
      <rect
         style="fill:none;fill-opacity:0.844;fill-rule:nonzero;stroke:#006c23;stroke-width:1.12376225;stroke-linecap:round;stroke-linejoin:round;stroke-miterlimit:4;stroke-dasharray:none;stroke-opacity:1"
         id="rect3153-6"
         width="45.341209"
         height="9.5889425"
         x="48.618134"
         y="41.143185" />
      <text
         id="text11305"
         y="47.773293"
         x="51.963783"
         style="font-style:normal;font-weight:normal;font-size:5.00553465px;line-height:1.25;font-family:sans-serif;letter-spacing:0px;word-spacing:0px;fill:#000000;fill-opacity:1;stroke:none;stroke-width:1.12376225;stroke-miterlimit:4;stroke-dasharray:none"
         xml:space="preserve"><tspan
           style="stroke-width:1.12376225;stroke-miterlimit:4;stroke-dasharray:none"
           y="47.773293"
           x="51.963783"
           id="tspan11303"
           sodipodi:role="line">Extra hardware</tspan></text>
    </g>
    <g
       id="g7706"
       transform="translate(0.4689064,-0.54199263)">
      <rect
         style="fill:none;fill-opacity:1;fill-rule:nonzero;stroke:#235b7e;stroke-width:0.94046003;stroke-linecap:round;stroke-linejoin:round;stroke-miterlimit:4;stroke-dasharray:none;stroke-opacity:1"
         id="rect2591-4-6-9-9"
         width="37.832859"
         height="8.1261539"
         x="50.90538"
         y="122.43901" />
      <text
         transform="scale(0.99688987,1.0031198)"
         xml:space="preserve"
         style="font-style:normal;font-weight:normal;font-size:8.85703564px;line-height:1.25;font-family:sans-serif;letter-spacing:0px;word-spacing:0px;fill:#000000;fill-opacity:1;stroke:none;stroke-width:0.22142588"
         x="59.111889"
         y="127.63353"
         id="text2595-7-5-3-8"><tspan
           sodipodi:role="line"
           x="59.111889"
           y="127.63353"
           style="font-size:4.18905783px;stroke-width:0.22142588"
           id="tspan2597-5-63-9-4">Connector</tspan></text>
    </g>
    <text
       xml:space="preserve"
       style="font-style:normal;font-weight:normal;font-size:4.18905783px;line-height:1.25;font-family:sans-serif;letter-spacing:0px;word-spacing:0px;fill:#000000;fill-opacity:1;stroke:none;stroke-width:0.31417936"
       x="53.824345"
       y="137.70413"
       id="text11333"
       transform="scale(0.9968899,1.0031198)"><tspan
         sodipodi:role="line"
         id="tspan11331"
         x="53.824345"
         y="137.70413"
         style="stroke-width:0.31417936">(nbr GPIO used)</tspan></text>
    <g
       transform="matrix(1.1837565,0,0,1.1911542,69.356711,5.4345273)"
       id="g11340">
      <text
         xml:space="preserve"
         style="font-style:normal;font-weight:normal;font-size:6.3499999px;line-height:1.25;font-family:sans-serif;letter-spacing:0px;word-spacing:0px;fill:#000000;fill-opacity:1;stroke:none;stroke-width:0.26458332"
         x="-17.727083"
         y="81.59137"
         id="text11055"><tspan
           sodipodi:role="line"
           id="tspan11053"
           x="-17.727083"
           y="81.59137"
           style="stroke-width:0.26458332">Caption :</tspan></text>
      <path
         style="fill:none;stroke:#000000;stroke-width:0.40000001;stroke-linecap:butt;stroke-linejoin:miter;stroke-miterlimit:4;stroke-dasharray:none;stroke-opacity:1"
         d="M -17.754988,82.292887 H 8.5710589"
         id="path11335"
         inkscape:connector-curvature="0" />
    </g>
    <path
       inkscape:connector-curvature="0"
       inkscape:connector-type="polyline"
       id="path1050"
       d="m 95.590312,192.4592 v 0"
       style="fill:none;fill-rule:evenodd;stroke:#000000;stroke-width:0.22526501px;stroke-linecap:butt;stroke-linejoin:miter;stroke-opacity:1" />
    <path
       inkscape:connection-end="#g3051-5"
       inkscape:connector-curvature="0"
       inkscape:connector-type="polyline"
       id="path1058"
       d="m 95.568307,198.42337 -11.14442,-0.005"
       style="display:inline;fill:none;fill-rule:evenodd;stroke:#000000;stroke-width:0.22526501px;stroke-linecap:butt;stroke-linejoin:miter;stroke-opacity:1;marker-start:url(#marker13378);marker-end:url(#marker12058)" />
    <g
       transform="matrix(0.97990009,0,0,0.98602387,1.1111365,57.840289)"
       id="g3188">
      <rect
         style="fill:none;fill-opacity:0.844;fill-rule:nonzero;stroke:#ee6a17;stroke-width:1.04700005;stroke-linecap:round;stroke-linejoin:round;stroke-miterlimit:4;stroke-dasharray:none;stroke-opacity:1"
         id="rect3153"
         width="48.380955"
         height="33.261906"
         x="-9.1237736"
         y="64.166672" />
      <text
         xml:space="preserve"
         style="font-style:normal;font-weight:normal;font-size:6.3499999px;line-height:1.25;font-family:sans-serif;letter-spacing:0px;word-spacing:0px;fill:#000000;fill-opacity:1;stroke:none;stroke-width:0.26458332"
         x="15.056736"
         y="70.132118"
         id="text3165"><tspan
           sodipodi:role="line"
           id="tspan3163"
           x="15.056735"
           y="70.132118"
           style="text-align:center;text-anchor:middle;stroke-width:0.26458332">ADC(/DAC?)</tspan><tspan
           sodipodi:role="line"
           x="15.056735"
           y="78.069618"
           style="text-align:center;text-anchor:middle;stroke-width:0.26458332"
           id="tspan3167">12bits</tspan><tspan
           sodipodi:role="line"
           x="15.056736"
           y="86.007118"
           style="text-align:center;text-anchor:middle;stroke-width:0.26458332"
           id="tspan3169">4/8channels</tspan></text>
      <text
         xml:space="preserve"
         style="font-style:normal;font-weight:normal;font-size:6.3499999px;line-height:1.25;font-family:sans-serif;letter-spacing:0px;word-spacing:0px;fill:#000000;fill-opacity:1;stroke:none;stroke-width:0.26458332"
         x="-6.7392464"
         y="93.919113"
         id="text3173"><tspan
           sodipodi:role="line"
           x="-6.7392464"
           y="93.919113"
           style="font-size:3.52777767px;stroke-width:0.26458332"
           id="tspan3177">(LTC2309CF,  AD5593R)</tspan></text>
    </g>
    <g
       transform="matrix(0.97990009,0,0,0.98602387,54.056608,-63.989105)"
       id="g3051-5-73-2">
      <rect
         style="fill:none;fill-opacity:1;fill-rule:nonzero;stroke:#235b7e;stroke-width:1.18205142;stroke-linecap:round;stroke-linejoin:round;stroke-miterlimit:4;stroke-dasharray:none;stroke-opacity:1"
         id="rect2591-4-6-9"
         width="45.542828"
         height="10.657953"
         x="-61.736206"
         y="161.16393" />
      <text
         xml:space="preserve"
         style="font-style:normal;font-weight:normal;font-size:10.58333302px;line-height:1.25;font-family:sans-serif;letter-spacing:0px;word-spacing:0px;fill:#000000;fill-opacity:1;stroke:none;stroke-width:0.26458332"
         x="-59.3713"
         y="168.24474"
         id="text2595-7-5-3"><tspan
           sodipodi:role="line"
           x="-59.3713"
           y="168.24474"
           style="font-size:6.3499999px;stroke-width:0.26458332"
           id="tspan2597-5-63-9">Analog I(/O?)</tspan></text>
    </g>
    <path
       inkscape:connection-end="#g3051-5-73-2"
       inkscape:connector-curvature="0"
       inkscape:connector-type="polyline"
       id="path10016"
       d="m 14.02102,119.65812 2e-6,-14.22675"
       style="fill:none;fill-rule:evenodd;stroke:#000000;stroke-width:0.26007408px;stroke-linecap:butt;stroke-linejoin:miter;stroke-opacity:1;marker-end:url(#marker10515-3)" />
    <g
       id="g5824"
       transform="matrix(0.8342824,0,0,0.83949616,151.81877,-41.350604)">
      <rect
         y="161.20898"
         x="-47.524071"
         height="10.567841"
         width="24.867077"
         id="rect5818"
         style="fill:none;fill-opacity:1;fill-rule:nonzero;stroke:#235b7e;stroke-width:0.86975104;stroke-linecap:round;stroke-linejoin:round;stroke-miterlimit:4;stroke-dasharray:none;stroke-opacity:1" />
      <text
         id="text5822"
         y="168.69592"
         x="-34.94392"
         style="font-style:normal;font-weight:normal;font-size:10.58333302px;line-height:1.25;font-family:sans-serif;text-align:center;letter-spacing:0px;word-spacing:0px;text-anchor:middle;fill:#000000;fill-opacity:1;stroke:none;stroke-width:0.26458332"
         xml:space="preserve"><tspan
           id="tspan5820"
           style="font-size:6.3499999px;text-align:center;text-anchor:middle;stroke-width:0.26458332"
           y="168.69592"
           x="-34.94392"
           sodipodi:role="line">GPIOs</tspan></text>
    </g>
    <g
       id="g5840"
       transform="matrix(0.8342824,0,0,0.83949616,123.35837,62.468887)">
      <rect
         y="64.166672"
         x="-25.324406"
         height="33.261906"
         width="48.380955"
         id="rect5826"
         style="fill:none;fill-opacity:0.844;fill-rule:nonzero;stroke:#006c23;stroke-width:1.04700005;stroke-linecap:round;stroke-linejoin:round;stroke-miterlimit:4;stroke-dasharray:none;stroke-opacity:1" />
      <text
         id="text5834"
         y="70.132118"
         x="-1.1323776"
         style="font-style:normal;font-weight:normal;font-size:6.3499999px;line-height:1.25;font-family:sans-serif;letter-spacing:0px;word-spacing:0px;fill:#000000;fill-opacity:1;stroke:none;stroke-width:0.26458332"
         xml:space="preserve"><tspan
           id="tspan5828"
           style="text-align:center;text-anchor:middle;stroke-width:0.26458332"
           y="70.132118"
           x="-1.1323774"
           sodipodi:role="line">I/O</tspan><tspan
           style="text-align:center;text-anchor:middle;stroke-width:0.26458332"
           y="78.069618"
           x="-1.1323774"
           sodipodi:role="line"
           id="tspan5830">expander</tspan><tspan
           style="text-align:center;text-anchor:middle;stroke-width:0.26458332"
           y="86.007118"
           x="-1.132377"
           sodipodi:role="line"
           id="tspan5832">(SPI or I²C)</tspan></text>
      <text
         id="text5838"
         y="91.397751"
         x="-1.2837905"
         style="font-style:normal;font-weight:normal;font-size:6.3499999px;line-height:0.60000002;font-family:sans-serif;text-align:center;letter-spacing:0px;word-spacing:0px;text-anchor:middle;fill:#000000;fill-opacity:1;stroke:none;stroke-width:0.26458332"
         xml:space="preserve"><tspan
           style="font-size:3.52777767px;line-height:0.60000002;text-align:center;text-anchor:middle;stroke-width:0.26458332"
           y="91.397751"
           x="-1.2837906"
           sodipodi:role="line"
           id="tspan6230">(MCP23017 or</tspan><tspan
           style="font-size:3.52777767px;line-height:0.60000002;text-align:center;text-anchor:middle;stroke-width:0.26458332"
           y="95.207748"
           x="-1.28379"
           sodipodi:role="line"
           id="tspan6234">MCP23S17)</tspan></text>
    </g>
    <path
       style="fill:none;fill-rule:evenodd;stroke:#000000;stroke-width:0.26499999;stroke-linecap:butt;stroke-linejoin:miter;stroke-miterlimit:4;stroke-dasharray:none;stroke-opacity:1;marker-start:url(#marker9740);marker-end:url(#marker6024)"
       d="m 120.60978,116.33656 0.0554,-13.48118"
       id="path6014"
       inkscape:connector-type="polyline"
       inkscape:connector-curvature="0"
       inkscape:connection-start="#g5840"
       inkscape:connection-end="#g5824" />
    <g
       id="g6252"
       transform="matrix(0.85139538,0,0,0.85139538,95.244849,43.056215)">
      <rect
         y="140.67938"
         x="-58.36412"
         height="10.570111"
         width="13.424004"
         id="rect6246"
         style="fill:none;fill-opacity:1;fill-rule:nonzero;stroke:#235b7e;stroke-width:1.02915621;stroke-linecap:round;stroke-linejoin:round;stroke-miterlimit:4;stroke-dasharray:none;stroke-opacity:1" />
      <text
         transform="scale(0.9968899,1.0031198)"
         id="text6250"
         y="147.67593"
         x="-56.518383"
         style="font-style:normal;font-weight:normal;font-size:10.40296364px;line-height:1.25;font-family:sans-serif;letter-spacing:0px;word-spacing:0px;fill:#000000;fill-opacity:1;stroke:none;stroke-width:0.26007408"
         xml:space="preserve"><tspan
           id="tspan6248"
           style="font-size:6.24177837px;stroke-width:0.26007408"
           y="147.67593"
           x="-56.518383"
           sodipodi:role="line">I2C</tspan></text>
    </g>
    <path
       inkscape:connector-curvature="0"
       inkscape:connector-type="polyline"
       id="path6254"
       d="M 56.983041,165.84051 94.970983,165.6542"
       style="display:inline;fill:none;fill-rule:evenodd;stroke:#000000;stroke-width:0.22142588px;stroke-linecap:butt;stroke-linejoin:miter;stroke-opacity:1;marker-start:url(#marker6262);marker-end:url(#marker8802)"
       inkscape:connection-start="#g6252" />
    <text
       xml:space="preserve"
       style="font-style:normal;font-weight:normal;font-size:5.31422138px;line-height:1.25;font-family:sans-serif;letter-spacing:0px;word-spacing:0px;fill:#000000;fill-opacity:1;stroke:none;stroke-width:0.22142588"
       x="99.84967"
       y="168.47514"
       id="text6258"
       transform="scale(0.9968899,1.0031198)"><tspan
         sodipodi:role="line"
         id="tspan6256"
         x="99.84967"
         y="168.47514"
         style="stroke-width:0.22142588">I2C0</tspan></text>
    <path
       style="display:inline;fill:none;fill-rule:evenodd;stroke:#000000;stroke-width:0.26458332;stroke-linecap:butt;stroke-linejoin:miter;stroke-miterlimit:4;stroke-dasharray:0.26458332, 0.79374995;stroke-dashoffset:0;stroke-opacity:1;marker-start:url(#marker10360);marker-end:url(#marker7414)"
       d="m 45.553906,165.87763 -31.532887,0 v -11.97044"
       id="path7404"
       inkscape:connector-type="orthogonal"
       inkscape:connector-curvature="0"
       inkscape:connection-start="#g6252"
       inkscape:connection-end="#g3188" />
    <g
       transform="matrix(0.83428239,0,0,0.83949617,16.821017,143.86272)"
       id="g3188-4-7">
      <rect
         style="fill:none;fill-opacity:0.844;fill-rule:nonzero;stroke:#ee6a17;stroke-width:1.04700005;stroke-linecap:round;stroke-linejoin:round;stroke-miterlimit:4;stroke-dasharray:none;stroke-opacity:1"
         id="rect3153-7-5"
         width="48.380955"
         height="17.185846"
         x="-25.324406"
         y="64.165886" />
      <text
         xml:space="preserve"
         style="font-style:normal;font-weight:normal;font-size:6.3499999px;line-height:0.75;font-family:sans-serif;letter-spacing:0px;word-spacing:0px;fill:#000000;fill-opacity:1;stroke:none;stroke-width:0.26458332"
         x="-1.1438951"
         y="70.132118"
         id="text3165-4-3"><tspan
           id="tspan3233-6"
           sodipodi:role="line"
           x="-0.13310474"
           y="70.132118"
           style="line-height:0.75;text-align:center;text-anchor:middle;stroke-width:0.26458332">RS232 </tspan><tspan
           id="tspan3237-2"
           sodipodi:role="line"
           x="-1.1438949"
           y="74.894615"
           style="line-height:0.75;text-align:center;text-anchor:middle;stroke-width:0.26458332">Tranceiver</tspan><tspan
           sodipodi:role="line"
           x="-1.1438955"
           y="79.65712"
           style="line-height:0.75;text-align:center;text-anchor:middle;stroke-width:0.26458332"
           id="tspan7724">module</tspan></text>
      <text
         xml:space="preserve"
         style="font-style:normal;font-weight:normal;font-size:6.3499999px;line-height:1.25;font-family:sans-serif;letter-spacing:0px;word-spacing:0px;fill:#000000;fill-opacity:1;stroke:none;stroke-width:0.26458332"
         x="-12.356545"
         y="93.919113"
         id="text3173-7-9"><tspan
           sodipodi:role="line"
           x="-12.356545"
           y="99.537376"
           style="font-size:3.52777767px;stroke-width:0.26458332"
           id="tspan3177-8-1" /></text>
    </g>
    <g
       id="g7696"
       transform="matrix(0.83428239,0,0,0.83949617,16.821017,163.02066)">
      <rect
         y="64.165886"
         x="-25.324406"
         height="17.185846"
         width="48.380955"
         id="rect7684"
         style="fill:none;fill-opacity:0.844;fill-rule:nonzero;stroke:#ee6a17;stroke-width:1.04700005;stroke-linecap:round;stroke-linejoin:round;stroke-miterlimit:4;stroke-dasharray:none;stroke-opacity:1" />
      <text
         id="text7690"
         y="70.132118"
         x="-1.1438951"
         style="font-style:normal;font-weight:normal;font-size:6.3499999px;line-height:1.25;font-family:sans-serif;letter-spacing:0px;word-spacing:0px;fill:#000000;fill-opacity:1;stroke:none;stroke-width:0.26458332"
         xml:space="preserve"><tspan
           style="text-align:center;text-anchor:middle;stroke-width:0.26458332"
           y="70.132118"
           x="-1.1438956"
           sodipodi:role="line"
           id="tspan7688">R485</tspan><tspan
           style="text-align:center;text-anchor:middle;stroke-width:0.26458332"
           y="78.069618"
           x="-1.1438955"
           sodipodi:role="line"
           id="tspan7728">module</tspan></text>
      <text
         id="text7694"
         y="93.919113"
         x="-12.356545"
         style="font-style:normal;font-weight:normal;font-size:6.3499999px;line-height:1.25;font-family:sans-serif;letter-spacing:0px;word-spacing:0px;fill:#000000;fill-opacity:1;stroke:none;stroke-width:0.26458332"
         xml:space="preserve"><tspan
           id="tspan7692"
           style="font-size:3.52777767px;stroke-width:0.26458332"
           y="99.537376"
           x="-12.356545"
           sodipodi:role="line" /></text>
    </g>
    <g
       id="g7714"
       transform="translate(0.4689045,21.16667)">
      <rect
         y="122.439"
         x="49.614155"
         height="11.734292"
         width="40.415314"
         id="rect7708"
         style="fill:none;fill-opacity:1;fill-rule:nonzero;stroke:#ee6a17;stroke-width:0.94046003;stroke-linecap:round;stroke-linejoin:round;stroke-miterlimit:4;stroke-dasharray:none;stroke-opacity:1" />
      <text
         id="text7712"
         y="127.63353"
         x="69.80442"
         style="font-style:normal;font-weight:normal;font-size:8.85703564px;line-height:0.5;font-family:sans-serif;text-align:center;letter-spacing:0px;word-spacing:0px;text-anchor:middle;fill:#000000;fill-opacity:1;stroke:none;stroke-width:0.22142588"
         xml:space="preserve"
         transform="scale(0.99688987,1.0031198)"><tspan
           style="font-size:4.18905783px;line-height:0.5;text-align:center;text-anchor:middle;stroke-width:0.22142588"
           y="127.63353"
           x="69.80442"
           sodipodi:role="line"
           id="tspan7718">Custom expansion</tspan><tspan
           style="font-size:4.18905783px;line-height:0.5;text-align:center;text-anchor:middle;stroke-width:0.22142588"
           y="132.10764"
           x="69.80442"
           sodipodi:role="line"
           id="tspan7722">module</tspan></text>
    </g>
    <path
       style="display:inline;fill:none;fill-rule:evenodd;stroke:#000000;stroke-width:0.26499999;stroke-linecap:butt;stroke-linejoin:miter;stroke-miterlimit:4;stroke-dasharray:0.26499999, 0.79499996;stroke-dashoffset:0;stroke-opacity:1;marker-start:url(#marker10980);marker-end:url(#marker7740)"
       d="M 49.298562,215.39933 36.05669,210.92954"
       id="path7730"
       inkscape:connector-type="polyline"
       inkscape:connector-curvature="0"
       inkscape:connection-end="#g3188-4-7"
       inkscape:connection-start="#g3051-5-7" />
    <path
       style="display:inline;fill:none;fill-rule:evenodd;stroke:#000000;stroke-width:0.26458332;stroke-linecap:butt;stroke-linejoin:miter;stroke-miterlimit:4;stroke-dasharray:0.26458332, 0.79374995;stroke-dashoffset:0;stroke-opacity:1;marker-start:url(#marker11266);marker-end:url(#marker7974)"
       d="m 43.699928,215.98909 -7.643238,1.71523"
       id="path7964"
       inkscape:connector-type="polyline"
       inkscape:connector-curvature="0"
       inkscape:connection-end="#g7696" />
    <g
       transform="matrix(0.83428239,0,0,0.83949617,16.821017,182.17828)"
       id="g13734">
      <rect
         style="fill:none;fill-opacity:0.844;fill-rule:nonzero;stroke:#ee6a17;stroke-width:1.04700005;stroke-linecap:round;stroke-linejoin:round;stroke-miterlimit:4;stroke-dasharray:none;stroke-opacity:1"
         id="rect13722"
         width="48.380955"
         height="21.237253"
         x="-25.324406"
         y="64.166267" />
      <text
         xml:space="preserve"
         style="font-style:normal;font-weight:normal;font-size:6.3499999px;line-height:1;font-family:sans-serif;letter-spacing:0px;word-spacing:0px;fill:#000000;fill-opacity:1;stroke:none;stroke-width:0.26458332"
         x="-1.1438951"
         y="70.132118"
         id="text13728"><tspan
           id="tspan13726"
           sodipodi:role="line"
           x="-1.1438955"
           y="70.132118"
           style="line-height:1;text-align:center;text-anchor:middle;stroke-width:0.26458332">3.3V ttl to</tspan><tspan
           sodipodi:role="line"
           x="-1.1438953"
           y="76.482117"
           style="line-height:1;text-align:center;text-anchor:middle;stroke-width:0.26458332"
           id="tspan13738">5V ttl</tspan><tspan
           sodipodi:role="line"
           x="-1.1438955"
           y="82.832115"
           style="line-height:1;text-align:center;text-anchor:middle;stroke-width:0.26458332"
           id="tspan13740">module</tspan></text>
      <text
         xml:space="preserve"
         style="font-style:normal;font-weight:normal;font-size:6.3499999px;line-height:1.25;font-family:sans-serif;letter-spacing:0px;word-spacing:0px;fill:#000000;fill-opacity:1;stroke:none;stroke-width:0.26458332"
         x="-12.356545"
         y="93.919113"
         id="text13732"><tspan
           sodipodi:role="line"
           x="-12.356545"
           y="99.537376"
           style="font-size:3.52777767px;stroke-width:0.26458332"
           id="tspan13730" /></text>
    </g>
    <path
       inkscape:connector-curvature="0"
       inkscape:connector-type="polyline"
       id="path13754"
       d="m 47.806961,224.46001 -20.54984,11.58561"
       style="display:inline;fill:none;fill-rule:evenodd;stroke:#000000;stroke-width:0.26458332;stroke-linecap:butt;stroke-linejoin:miter;stroke-miterlimit:4;stroke-dasharray:0.26458332, 0.79374995;stroke-dashoffset:0;stroke-opacity:1;marker-start:url(#marker13758);marker-end:url(#marker14092)"
       inkscape:connection-end="#g13734"
       inkscape:connection-start="#g3051-5-7" />
    <rect
       style="fill:none;fill-opacity:1;fill-rule:nonzero;stroke:#010000;stroke-width:1;stroke-linecap:round;stroke-linejoin:round;stroke-miterlimit:4;stroke-dasharray:none;stroke-dashoffset:0;stroke-opacity:1"
       id="rect1140"
       width="305.95505"
       height="175.17311"
       x="-9.6962099"
       y="92.592201"
       ry="0.50861168" />
  </g>
</svg>
