<?xml version="1.0" encoding="UTF-8" standalone="no"?>
<!-- Created with Inkscape (http://www.inkscape.org/) -->

<svg
   xmlns:dc="http://purl.org/dc/elements/1.1/"
   xmlns:cc="http://creativecommons.org/ns#"
   xmlns:rdf="http://www.w3.org/1999/02/22-rdf-syntax-ns#"
   xmlns:svg="http://www.w3.org/2000/svg"
   xmlns="http://www.w3.org/2000/svg"
   xmlns:sodipodi="http://sodipodi.sourceforge.net/DTD/sodipodi-0.dtd"
   xmlns:inkscape="http://www.inkscape.org/namespaces/inkscape"
   width="170.46799mm"
   height="227.36426mm"
   viewBox="0 0 170.46799 227.36426"
   version="1.1"
   id="svg4826"
   inkscape:version="0.92.2 2405546, 2018-03-11"
   sodipodi:docname="testExecution.svg">
  <defs
     id="defs4820">
    <marker
       inkscape:stockid="Arrow1Lend"
       orient="auto"
       refY="0"
       refX="0"
       id="marker8514"
       style="overflow:visible"
       inkscape:isstock="true">
      <path
         id="path8512"
         d="M 0,0 5,-5 -12.5,0 5,5 Z"
         style="fill:#000000;fill-opacity:1;fill-rule:evenodd;stroke:#000000;stroke-width:1.00000003pt;stroke-opacity:1"
         transform="matrix(-0.8,0,0,-0.8,-10,0)"
         inkscape:connector-curvature="0" />
    </marker>
    <marker
       inkscape:stockid="Arrow1Lend"
       orient="auto"
       refY="0"
       refX="0"
       id="marker8506"
       style="overflow:visible"
       inkscape:isstock="true">
      <path
         id="path8504"
         d="M 0,0 5,-5 -12.5,0 5,5 Z"
         style="fill:#000000;fill-opacity:1;fill-rule:evenodd;stroke:#000000;stroke-width:1.00000003pt;stroke-opacity:1"
         transform="matrix(-0.8,0,0,-0.8,-10,0)"
         inkscape:connector-curvature="0" />
    </marker>
    <marker
       inkscape:stockid="Arrow1Lend"
       orient="auto"
       refY="0"
       refX="0"
       id="marker8458"
       style="overflow:visible"
       inkscape:isstock="true">
      <path
         id="path8456"
         d="M 0,0 5,-5 -12.5,0 5,5 Z"
         style="fill:#000000;fill-opacity:1;fill-rule:evenodd;stroke:#000000;stroke-width:1.00000003pt;stroke-opacity:1"
         transform="matrix(-0.8,0,0,-0.8,-10,0)"
         inkscape:connector-curvature="0" />
    </marker>
    <marker
       inkscape:stockid="Arrow1Lend"
       orient="auto"
       refY="0"
       refX="0"
       id="marker8450"
       style="overflow:visible"
       inkscape:isstock="true">
      <path
         id="path8448"
         d="M 0,0 5,-5 -12.5,0 5,5 Z"
         style="fill:#000000;fill-opacity:1;fill-rule:evenodd;stroke:#000000;stroke-width:1.00000003pt;stroke-opacity:1"
         transform="matrix(-0.8,0,0,-0.8,-10,0)"
         inkscape:connector-curvature="0" />
    </marker>
    <marker
       inkscape:stockid="Arrow1Lend"
       orient="auto"
       refY="0"
       refX="0"
       id="Arrow1Lend"
       style="overflow:visible"
       inkscape:isstock="true">
      <path
         id="path8185"
         d="M 0,0 5,-5 -12.5,0 5,5 Z"
         style="fill:#000000;fill-opacity:1;fill-rule:evenodd;stroke:#000000;stroke-width:1.00000003pt;stroke-opacity:1"
         transform="matrix(-0.8,0,0,-0.8,-10,0)"
         inkscape:connector-curvature="0" />
    </marker>
    <marker
       inkscape:stockid="Arrow1Lend"
       orient="auto"
       refY="0"
       refX="0"
       id="marker8180"
       style="overflow:visible"
       inkscape:isstock="true">
      <path
         inkscape:connector-curvature="0"
         id="path8178"
         d="M 0,0 5,-5 -12.5,0 5,5 Z"
         style="fill:#000000;fill-opacity:1;fill-rule:evenodd;stroke:#000000;stroke-width:1.00000003pt;stroke-opacity:1"
         transform="matrix(-0.8,0,0,-0.8,-10,0)" />
    </marker>
    <marker
       inkscape:stockid="Arrow1Lend"
       orient="auto"
       refY="0"
       refX="0"
       id="marker8837"
       style="overflow:visible"
       inkscape:isstock="true"
       inkscape:collect="always">
      <path
         inkscape:connector-curvature="0"
         id="path8835"
         d="M 0,0 5,-5 -12.5,0 5,5 Z"
         style="fill:#000000;fill-opacity:1;fill-rule:evenodd;stroke:#000000;stroke-width:1.00000003pt;stroke-opacity:1"
         transform="matrix(-0.8,0,0,-0.8,-10,0)" />
    </marker>
    <marker
       inkscape:isstock="true"
       style="overflow:visible"
       id="marker9158"
       refX="0"
       refY="0"
       orient="auto"
       inkscape:stockid="Arrow1Lend">
      <path
         inkscape:connector-curvature="0"
         transform="matrix(-0.8,0,0,-0.8,-10,0)"
         style="fill:#000000;fill-opacity:1;fill-rule:evenodd;stroke:#000000;stroke-width:1.00000003pt;stroke-opacity:1"
         d="M 0,0 5,-5 -12.5,0 5,5 Z"
         id="path9156" />
    </marker>
    <marker
       inkscape:isstock="true"
       style="overflow:visible"
       id="marker9459"
       refX="0"
       refY="0"
       orient="auto"
       inkscape:stockid="Arrow1Lend">
      <path
         inkscape:connector-curvature="0"
         transform="matrix(-0.8,0,0,-0.8,-10,0)"
         style="fill:#000000;fill-opacity:1;fill-rule:evenodd;stroke:#000000;stroke-width:1.00000003pt;stroke-opacity:1"
         d="M 0,0 5,-5 -12.5,0 5,5 Z"
         id="path9457" />
    </marker>
    <marker
       inkscape:isstock="true"
       style="overflow:visible"
       id="marker10884"
       refX="0"
       refY="0"
       orient="auto"
       inkscape:stockid="Arrow1Lend">
      <path
         inkscape:connector-curvature="0"
         transform="matrix(-0.8,0,0,-0.8,-10,0)"
         style="fill:#000000;fill-opacity:1;fill-rule:evenodd;stroke:#000000;stroke-width:1.00000003pt;stroke-opacity:1"
         d="M 0,0 5,-5 -12.5,0 5,5 Z"
         id="path10882" />
    </marker>
    <marker
       inkscape:stockid="Arrow1Lend"
       orient="auto"
       refY="0"
       refX="0"
       id="marker7137"
       style="overflow:visible"
       inkscape:isstock="true">
      <path
         inkscape:connector-curvature="0"
         id="path7135"
         d="M 0,0 5,-5 -12.5,0 5,5 Z"
         style="fill:#000000;fill-opacity:1;fill-rule:evenodd;stroke:#000000;stroke-width:1.00000003pt;stroke-opacity:1"
         transform="matrix(-0.8,0,0,-0.8,-10,0)" />
    </marker>
    <marker
       inkscape:isstock="true"
       style="overflow:visible"
       id="marker2465"
       refX="0"
       refY="0"
       orient="auto"
       inkscape:stockid="Arrow1Lstart">
      <path
         transform="matrix(0.8,0,0,0.8,10,0)"
         style="fill:#000000;fill-opacity:1;fill-rule:evenodd;stroke:#000000;stroke-width:1.00000003pt;stroke-opacity:1"
         d="M 0,0 5,-5 -12.5,0 5,5 Z"
         id="path2463"
         inkscape:connector-curvature="0" />
    </marker>
    <marker
       inkscape:stockid="Arrow1Lstart"
       orient="auto"
       refY="0"
       refX="0"
       id="marker4950"
       style="overflow:visible"
       inkscape:isstock="true">
      <path
         inkscape:connector-curvature="0"
         id="path4948"
         d="M 0,0 5,-5 -12.5,0 5,5 Z"
         style="fill:#000000;fill-opacity:1;fill-rule:evenodd;stroke:#000000;stroke-width:1.00000003pt;stroke-opacity:1"
         transform="matrix(0.8,0,0,0.8,10,0)" />
    </marker>
    <marker
       inkscape:isstock="true"
       style="overflow:visible"
       id="marker9158-3"
       refX="0"
       refY="0"
       orient="auto"
       inkscape:stockid="Arrow1Lend">
      <path
         inkscape:connector-curvature="0"
         transform="matrix(-0.8,0,0,-0.8,-10,0)"
         style="fill:#000000;fill-opacity:1;fill-rule:evenodd;stroke:#000000;stroke-width:1.00000003pt;stroke-opacity:1"
         d="M 0,0 5,-5 -12.5,0 5,5 Z"
         id="path9156-6" />
    </marker>
    <marker
       inkscape:isstock="true"
       style="overflow:visible"
       id="marker9459-0"
       refX="0"
       refY="0"
       orient="auto"
       inkscape:stockid="Arrow1Lend">
      <path
         inkscape:connector-curvature="0"
         transform="matrix(-0.8,0,0,-0.8,-10,0)"
         style="fill:#000000;fill-opacity:1;fill-rule:evenodd;stroke:#000000;stroke-width:1.00000003pt;stroke-opacity:1"
         d="M 0,0 5,-5 -12.5,0 5,5 Z"
         id="path9457-6" />
    </marker>
    <marker
       inkscape:isstock="true"
       style="overflow:visible"
       id="marker10884-2"
       refX="0"
       refY="0"
       orient="auto"
       inkscape:stockid="Arrow1Lend">
      <path
         inkscape:connector-curvature="0"
         transform="matrix(-0.8,0,0,-0.8,-10,0)"
         style="fill:#000000;fill-opacity:1;fill-rule:evenodd;stroke:#000000;stroke-width:1.00000003pt;stroke-opacity:1"
         d="M 0,0 5,-5 -12.5,0 5,5 Z"
         id="path10882-6" />
    </marker>
  </defs>
  <sodipodi:namedview
     id="base"
     pagecolor="#ffffff"
     bordercolor="#666666"
     borderopacity="1.0"
     inkscape:pageopacity="0.0"
     inkscape:pageshadow="2"
     inkscape:zoom="0.43366432"
     inkscape:cx="-198.099"
     inkscape:cy="384.65819"
     inkscape:document-units="mm"
     inkscape:current-layer="g5427"
     showgrid="false"
     inkscape:window-width="1676"
     inkscape:window-height="1025"
     inkscape:window-x="0"
     inkscape:window-y="0"
     inkscape:window-maximized="0" />
  <metadata
     id="metadata4823">
    <rdf:RDF>
      <cc:Work
         rdf:about="">
        <dc:format>image/svg+xml</dc:format>
        <dc:type
           rdf:resource="http://purl.org/dc/dcmitype/StillImage" />
        <dc:title></dc:title>
      </cc:Work>
    </rdf:RDF>
  </metadata>
  <g
     inkscape:label="Calque 1"
     inkscape:groupmode="layer"
     id="layer1"
     transform="translate(-19.766,-37.768339)">
    <g
       transform="matrix(0.73847689,0,0,0.73847689,98.022928,84.036059)"
       id="g5427">
      <rect
         style="fill:#ffffff;fill-opacity:1;stroke:#000000;stroke-width:1.7933836;stroke-linejoin:bevel;stroke-miterlimit:4;stroke-dasharray:none;stroke-opacity:1"
         id="rect4612"
         width="229.04388"
         height="306.08932"
         x="-105.07403"
         y="-61.75621"
         inkscape:export-filename="/home/tobias/Desktop/tmp.png"
         inkscape:export-xdpi="96"
         inkscape:export-ydpi="96" />
      <g
         id="g4966"
         transform="translate(-492.77505,-220.22499)"
         inkscape:export-filename="/home/tobias/Desktop/tmp.png"
         inkscape:export-xdpi="96"
         inkscape:export-ydpi="96">
        <rect
           y="193.35287"
           x="408.63852"
           height="26.514355"
           width="69.409897"
           id="rect4957"
           style="fill:#eef6fe;fill-opacity:1;stroke:#5686bb;stroke-width:2.01524496;stroke-linejoin:round;stroke-miterlimit:4;stroke-dasharray:none;stroke-opacity:1" />
        <text
           id="text4961"
           y="209.34631"
           x="419.64206"
           style="font-style:normal;font-variant:normal;font-weight:normal;font-stretch:normal;font-size:10.58333302px;line-height:1.25;font-family:'Liberation Sans';-inkscape-font-specification:'Liberation Sans';letter-spacing:0px;word-spacing:0px;fill:#000000;fill-opacity:1;stroke:none;stroke-width:0.26458332"
           xml:space="preserve"><tspan
             style="font-style:normal;font-variant:normal;font-weight:normal;font-stretch:normal;font-family:'Liberation Sans';-inkscape-font-specification:'Liberation Sans';stroke-width:0.26458332"
             y="209.34631"
             x="419.64206"
             id="tspan4959"
             sodipodi:role="line">config.yml</tspan></text>
      </g>
      <g
         id="g5902"
         transform="translate(-369.99932,0.71152275)"
         inkscape:export-filename="/home/tobias/Desktop/tmp.png"
         inkscape:export-xdpi="96"
         inkscape:export-ydpi="96">
        <rect
           y="193.35287"
           x="385.88437"
           height="41.331024"
           width="92.164062"
           id="rect5892"
           style="fill:#d4e8fe;fill-opacity:1;stroke:#1d5ba3;stroke-width:2.01524496;stroke-linejoin:round;stroke-miterlimit:4;stroke-dasharray:none;stroke-opacity:1" />
        <text
           id="text5900"
           y="205.44234"
           x="432.12454"
           style="font-style:normal;font-variant:normal;font-weight:normal;font-stretch:normal;font-size:10.58333302px;line-height:69.99999881%;font-family:'Liberation Sans';-inkscape-font-specification:'Liberation Sans';text-align:center;letter-spacing:0px;word-spacing:0px;text-anchor:middle;fill:#000000;fill-opacity:1;stroke:none;stroke-width:0.26458332"
           xml:space="preserve"><tspan
             style="font-style:normal;font-variant:normal;font-weight:normal;font-stretch:normal;font-size:8.81944466px;line-height:69.99999881%;font-family:'Liberation Sans';-inkscape-font-specification:'Liberation Sans';text-align:center;text-anchor:middle;stroke-width:0.26458332"
             y="205.44234"
             x="432.12454"
             id="tspan5894"
             sodipodi:role="line">Allure report</tspan><tspan
             id="tspan5898"
             style="font-style:normal;font-variant:normal;font-weight:normal;font-stretch:normal;font-size:6.3499999px;line-height:69.99999881%;font-family:'Liberation Sans';-inkscape-font-specification:'Liberation Sans';text-align:center;text-anchor:middle;stroke-width:0.26458332"
             y="212.85068"
             x="432.12454"
             sodipodi:role="line">(a web application,</tspan><tspan
             style="font-style:normal;font-variant:normal;font-weight:normal;font-stretch:normal;font-size:6.3499999px;line-height:69.99999881%;font-family:'Liberation Sans';-inkscape-font-specification:'Liberation Sans';text-align:center;text-anchor:middle;stroke-width:0.26458332"
             y="220.259"
             x="432.12454"
             sodipodi:role="line"
             id="tspan5906">that can be served using</tspan><tspan
             style="font-style:normal;font-variant:normal;font-weight:normal;font-stretch:normal;font-size:6.3499999px;line-height:69.99999881%;font-family:'Liberation Sans';-inkscape-font-specification:'Liberation Sans';text-align:center;text-anchor:middle;stroke-width:0.26458332"
             y="227.66734"
             x="432.12454"
             sodipodi:role="line"
             id="tspan5908">an http server)</tspan></text>
      </g>
      <g
         id="g4977"
         transform="translate(-121.67298,-96.10333)"
         inkscape:export-filename="/home/tobias/Desktop/tmp.png"
         inkscape:export-xdpi="96"
         inkscape:export-ydpi="96">
        <rect
           y="143.15894"
           x="136.12233"
           height="41.256012"
           width="95.035461"
           id="rect4485"
           style="fill:#effdd5;fill-opacity:1;stroke:#9fe223;stroke-width:2.01524496;stroke-linejoin:round;stroke-miterlimit:4;stroke-dasharray:none;stroke-opacity:1" />
        <text
           id="text4509"
           y="167.56966"
           x="165.48096"
           style="font-style:normal;font-variant:normal;font-weight:normal;font-stretch:normal;font-size:8.81944466px;line-height:1.25;font-family:'Liberation Sans';-inkscape-font-specification:'Liberation Sans';letter-spacing:0px;word-spacing:0px;fill:#000000;fill-opacity:1;stroke:none;stroke-width:0.26458332"
           xml:space="preserve"><tspan
             style="font-style:normal;font-variant:normal;font-weight:normal;font-stretch:normal;font-size:10.58333397px;font-family:'Liberation Sans';-inkscape-font-specification:'Liberation Sans';stroke-width:0.26458332"
             y="167.56966"
             x="165.48096"
             id="tspan4507"
             sodipodi:role="line">Behave</tspan></text>
      </g>
      <g
         transform="translate(-168.85845,-161.98576)"
         id="g8823"
         inkscape:export-filename="/home/tobias/Desktop/tmp.png"
         inkscape:export-xdpi="96"
         inkscape:export-ydpi="96">
        <rect
           style="fill:#effdd5;fill-opacity:1;stroke:#9fe223;stroke-width:2.01524496;stroke-linejoin:round;stroke-miterlimit:4;stroke-dasharray:none;stroke-opacity:1"
           id="rect8817"
           width="76.996742"
           height="44.569439"
           x="192.32716"
           y="126.37514" />
        <text
           xml:space="preserve"
           style="font-style:normal;font-variant:normal;font-weight:normal;font-stretch:normal;font-size:10.58333302px;line-height:1.25;font-family:'Liberation Sans';-inkscape-font-specification:'Liberation Sans';letter-spacing:0px;word-spacing:0px;fill:#000000;fill-opacity:1;stroke:none;stroke-width:0.26458332"
           x="214.87819"
           y="152.24878"
           id="text8821"><tspan
             sodipodi:role="line"
             id="tspan8819"
             x="214.87819"
             y="152.24878"
             style="font-style:normal;font-variant:normal;font-weight:normal;font-stretch:normal;font-size:11.46503925px;font-family:'Liberation Sans';-inkscape-font-specification:'Liberation Sans';stroke-width:0.26458332">Mestr</tspan></text>
      </g>
      <path
         style="display:inline;fill:none;fill-rule:evenodd;stroke:#000000;stroke-width:0.26499999;stroke-linecap:butt;stroke-linejoin:miter;stroke-miterlimit:4;stroke-dasharray:none;stroke-opacity:1;marker-end:url(#marker8837)"
         d="m -14.726634,-13.531273 38.195348,0.102279"
         id="path8825"
         inkscape:connector-type="polyline"
         inkscape:connector-curvature="0"
         inkscape:connection-start="#g4966"
         inkscape:connection-end="#g8823"
         inkscape:export-filename="/home/tobias/Desktop/tmp.png"
         inkscape:export-xdpi="96"
         inkscape:export-ydpi="96" />
      <g
         id="g9144"
         transform="translate(-58.042298,109.89332)"
         inkscape:export-filename="/home/tobias/Desktop/tmp.png"
         inkscape:export-xdpi="96"
         inkscape:export-ydpi="96">
        <rect
           y="-58.174763"
           x="-26.094229"
           height="29.560005"
           width="76.332176"
           id="rect9113"
           style="fill:#eef6fe;fill-opacity:1;stroke:#5686bb;stroke-width:2.01524496;stroke-linejoin:round;stroke-miterlimit:4;stroke-dasharray:none;stroke-opacity:1" />
        <text
           id="text5890-3"
           y="-39.612045"
           x="11.82898"
           style="font-style:normal;font-variant:normal;font-weight:normal;font-stretch:normal;font-size:7.05555534px;line-height:1.25;font-family:'Liberation Sans';-inkscape-font-specification:'Liberation Sans';text-align:center;letter-spacing:0px;word-spacing:0px;text-anchor:middle;fill:#000000;fill-opacity:1;stroke:none;stroke-width:0.26458332"
           xml:space="preserve"><tspan
             id="tspan5888-6"
             style="font-style:normal;font-variant:normal;font-weight:normal;font-stretch:normal;font-size:10.58333302px;font-family:'Liberation Sans';-inkscape-font-specification:'Liberation Sans';text-align:center;text-anchor:middle;stroke-width:0.26458332"
             y="-39.612045"
             x="11.828981"
             sodipodi:role="line">Behave tests</tspan></text>
      </g>
      <path
         style="display:inline;fill:none;fill-rule:evenodd;stroke:#000000;stroke-width:0.26499999;stroke-linecap:butt;stroke-linejoin:miter;stroke-miterlimit:4;stroke-dasharray:none;stroke-opacity:1;marker-end:url(#marker9158)"
         d="M -7.8043505,66.863117 14.44935,67.124815"
         id="path9146"
         inkscape:connector-type="polyline"
         inkscape:connector-curvature="0"
         inkscape:connection-end="#g4977"
         inkscape:connection-start="#g9144"
         inkscape:export-filename="/home/tobias/Desktop/tmp.png"
         inkscape:export-xdpi="96"
         inkscape:export-ydpi="96" />
      <g
         transform="translate(-385.60972,-179.86746)"
         id="g9442"
         inkscape:export-filename="/home/tobias/Desktop/tmp.png"
         inkscape:export-xdpi="96"
         inkscape:export-ydpi="96">
        <rect
           style="fill:#e6e9ea;fill-opacity:1;stroke:#a3b0b4;stroke-width:2.01524496;stroke-linejoin:round;stroke-miterlimit:4;stroke-dasharray:none;stroke-opacity:1"
           id="rect9436"
           width="60.94323"
           height="18.256519"
           x="417.10519"
           y="198.43571"
           inkscape:connector-avoid="true" />
        <text
           xml:space="preserve"
           style="font-style:normal;font-variant:normal;font-weight:normal;font-stretch:normal;font-size:10.58333302px;line-height:1.25;font-family:'Liberation Sans';-inkscape-font-specification:'Liberation Sans';letter-spacing:0px;word-spacing:0px;fill:#000000;fill-opacity:1;stroke:none;stroke-width:0.26458332"
           x="419.54752"
           y="211.34669"
           id="text9440"><tspan
             sodipodi:role="line"
             id="tspan9438"
             x="419.54752"
             y="211.34669"
             style="font-style:normal;font-variant:normal;font-weight:normal;font-stretch:normal;font-family:'Liberation Sans';-inkscape-font-specification:'Liberation Sans';stroke-width:0.26458332">Architecture</tspan></text>
      </g>
      <path
         style="fill:none;fill-rule:evenodd;stroke:#000000;stroke-width:0.26458332px;stroke-linecap:butt;stroke-linejoin:miter;stroke-opacity:1;marker-end:url(#Arrow1Lend)"
         d="m 61.967087,8.9588163 10e-7,9.6094387"
         id="path9447"
         inkscape:connector-type="polyline"
         inkscape:connector-curvature="0"
         inkscape:connection-start="#g8823"
         inkscape:connection-end="#g9442"
         inkscape:export-filename="/home/tobias/Desktop/tmp.png"
         inkscape:export-xdpi="96"
         inkscape:export-ydpi="96" />
      <path
         style="fill:none;fill-rule:evenodd;stroke:#000000;stroke-width:0.26499999;stroke-linecap:butt;stroke-linejoin:miter;stroke-miterlimit:4;stroke-dasharray:none;stroke-opacity:1;marker-end:url(#marker9459)"
         d="m 61.967087,36.824774 -2e-6,10.230832"
         id="path9449"
         inkscape:connector-type="polyline"
         inkscape:connector-curvature="0"
         inkscape:connection-start="#g9442"
         inkscape:connection-end="#g4977"
         inkscape:export-filename="/home/tobias/Desktop/tmp.png"
         inkscape:export-xdpi="96"
         inkscape:export-ydpi="96" />
      <g
         transform="translate(-385.60972,-92.451769)"
         id="g9442-1"
         inkscape:export-filename="/home/tobias/Desktop/tmp.png"
         inkscape:export-xdpi="96"
         inkscape:export-ydpi="96">
        <rect
           style="fill:#e6e9ea;fill-opacity:1;stroke:#1d3c45;stroke-width:2.01524496;stroke-linejoin:round;stroke-miterlimit:4;stroke-dasharray:none;stroke-opacity:0.40500004"
           id="rect9436-0"
           width="60.94323"
           height="18.256519"
           x="417.10519"
           y="198.43571"
           inkscape:connector-avoid="true" />
        <text
           xml:space="preserve"
           style="font-style:normal;font-variant:normal;font-weight:normal;font-stretch:normal;font-size:10.58333302px;line-height:1.25;font-family:'Liberation Sans';-inkscape-font-specification:'Liberation Sans';letter-spacing:0px;word-spacing:0px;fill:#000000;fill-opacity:1;stroke:none;stroke-width:0.26458332"
           x="428.79242"
           y="210.10646"
           id="text9440-5"><tspan
             sodipodi:role="line"
             id="tspan9438-7"
             x="428.79242"
             y="210.10646"
             style="font-style:normal;font-variant:normal;font-weight:normal;font-stretch:normal;font-family:'Liberation Sans';-inkscape-font-specification:'Liberation Sans';stroke-width:0.26458332">Reports</tspan></text>
      </g>
      <g
         transform="translate(-110.03141,-5.0921624)"
         id="g10253"
         inkscape:export-filename="/home/tobias/Desktop/tmp.png"
         inkscape:export-xdpi="96"
         inkscape:export-ydpi="96">
        <rect
           style="fill:#effdd5;fill-opacity:1;stroke:#9fe223;stroke-width:2.01524496;stroke-linejoin:round;stroke-miterlimit:4;stroke-dasharray:none;stroke-opacity:1"
           id="rect10247"
           width="95.035461"
           height="41.256012"
           x="124.48077"
           y="143.15894" />
        <text
           xml:space="preserve"
           style="font-style:normal;font-variant:normal;font-weight:normal;font-stretch:normal;font-size:8.81944466px;line-height:1.25;font-family:'Liberation Sans';-inkscape-font-specification:'Liberation Sans';letter-spacing:0px;word-spacing:0px;fill:#000000;fill-opacity:1;stroke:none;stroke-width:0.26458332"
           x="158.67632"
           y="167.56966"
           id="text10251"><tspan
             sodipodi:role="line"
             id="tspan10249"
             x="158.67632"
             y="167.56966"
             style="font-style:normal;font-variant:normal;font-weight:normal;font-stretch:normal;font-size:10.58333397px;font-family:'Liberation Sans';-inkscape-font-specification:'Liberation Sans';stroke-width:0.26458332">Allure</tspan></text>
      </g>
      <path
         style="fill:none;fill-rule:evenodd;stroke:#000000;stroke-width:0.26458332px;stroke-linecap:butt;stroke-linejoin:miter;stroke-opacity:1;marker-end:url(#marker10884)"
         d="m 61.967084,179.32279 -2e-6,14.74161"
         id="path10874"
         inkscape:connector-type="polyline"
         inkscape:connector-curvature="0"
         inkscape:connection-start="#g10253"
         inkscape:connection-end="#g5902"
         inkscape:export-filename="/home/tobias/Desktop/tmp.png"
         inkscape:export-xdpi="96"
         inkscape:export-ydpi="96" />
      <text
         xml:space="preserve"
         style="font-style:normal;font-variant:normal;font-weight:normal;font-stretch:normal;font-size:15.53957176px;line-height:50%;font-family:'Liberation Sans';-inkscape-font-specification:'Liberation Sans';text-align:start;letter-spacing:0px;word-spacing:0px;text-anchor:start;fill:#000000;fill-opacity:1;stroke:none;stroke-width:0.26458332"
         x="-44.486736"
         y="-45.024017"
         id="text4654"
         inkscape:export-filename="/home/tobias/Desktop/tmp.png"
         inkscape:export-xdpi="96"
         inkscape:export-ydpi="96"><tspan
           sodipodi:role="line"
           x="-44.486736"
           y="-45.024017"
           style="font-style:normal;font-variant:normal;font-weight:normal;font-stretch:normal;font-size:15.53957176px;line-height:50%;font-family:'Liberation Sans';-inkscape-font-specification:'Liberation Sans';text-align:start;text-anchor:start;stroke-width:0.26458332"
           id="tspan4652">Test execution</tspan></text>
      <g
         transform="matrix(1.3541385,0,0,1.3541385,-477.79634,250.73507)"
         id="layer1-8"
         inkscape:label="Calque 1"
         inkscape:export-filename="/home/tobias/Desktop/tmp.png"
         inkscape:export-xdpi="96"
         inkscape:export-ydpi="96" />
      <path
         style="fill:none;fill-rule:evenodd;stroke:#000000;stroke-width:0.35828248px;stroke-linecap:butt;stroke-linejoin:miter;stroke-opacity:1;marker-end:url(#marker8450)"
         d="M 61.967089,88.311618 V 105.98395"
         id="path8446"
         inkscape:connector-type="orthogonal"
         inkscape:connector-curvature="1"
         inkscape:connection-start="#g4977"
         inkscape:connection-end="#g9442-1"
         inkscape:export-filename="/home/tobias/Desktop/tmp.png"
         inkscape:export-xdpi="96"
         inkscape:export-ydpi="96" />
      <path
         style="display:inline;fill:none;fill-rule:evenodd;stroke:#000000;stroke-width:0.2998569px;stroke-linecap:butt;stroke-linejoin:miter;stroke-opacity:1;marker-end:url(#marker8514)"
         d="m 61.799886,124.37029 v 13.69648"
         id="path8510"
         inkscape:connector-type="orthogonal"
         inkscape:connector-curvature="1"
         inkscape:connection-end="#g10253"
         inkscape:export-filename="/home/tobias/Desktop/tmp.png"
         inkscape:export-xdpi="96"
         inkscape:export-ydpi="96" />
    </g>
  </g>
</svg>
